intro2 (mosfets, converters, filters)/my lab results if you get really lost/lab9/task 1 csv/newTask1Step3fixedResistor5vpp1.csv

#Digilent WaveForms Oscilloscope Acquisition
#Device Name: Discovery2
#Serial Number: SN:210321AA2E82
#Date Time: 2024-12-01 15:24:16.478
#Sample rate: 1.42857e+07Hz
#Samples: 8192
#Trigger: Source: Channel 1 Type: Edge Condition: Rising Level: 0 V Hyst.: Auto HoldOff: 0 s
#Channel 1: Range: 1 V/div Offset: 0 V Attenuation: 1 X Sample Mode: Average
#Wavegen Channel 1: Enabled
#Mode: Simple
#Type: Square
#Frequency: 1 kHz
#Period: 1 ms
#Amplitude: 2.5 V
#Offset: 1.5 V
#Symmetry: 50 %
#Phase: 0 °
#Power Supplies: OFF
#Positive Supply: Rdy
#Voltage: 5 V
#Negative Supply: OFF
#Voltage: -1 V

Time (s),Channel 1 (V)
-0.000286684,-1.031386928735543
-0.000286614,-1.024039417592222
-0.000286544,-1.024039417592224
-0.000286474,-1.027713173163882
-0.000286404,-1.024039417592222
-0.000286334,-1.02771317316388
-0.000286264,-1.024039417592222
-0.000286194,-1.024039417592222
-0.000286124,-1.02771317316388
-0.000286054,-1.024039417592222
-0.000285984,-1.024039417592222
-0.000285914,-1.02771317316388
-0.000285844,-1.024039417592222
-0.000285774,-1.031386928735543
-0.000285704,-1.027713173163886
-0.000285634,-1.035060684307203
-0.000285564,-1.031386928735543
-0.000285494,-1.031386928735543
-0.000285424,-1.031386928735543
-0.000285354,-1.031386928735543
-0.000285284,-1.024039417592228
-0.000285214,-1.038734439878857
-0.000285144,-1.035060684307203
-0.000285074,-1.027713173163884
-0.000285004,-1.031386928735541
-0.000284934,-1.031386928735543
-0.000284864,-1.024039417592222
-0.000284794,-1.024039417592222
-0.000284724,-1.024039417592222
-0.000284654,-1.02771317316388
-0.000284584,-1.024039417592224
-0.000284514,-1.027713173163882
-0.000284444,-1.031386928735541
-0.000284374,-1.027713173163884
-0.000284304,-1.024039417592222
-0.000284234,-1.024039417592222
-0.000284164,-1.024039417592222
-0.000284094,-1.031386928735543
-0.000284024,-1.031386928735539
-0.000283954,-1.024039417592225
-0.000283884,-1.031386928735543
-0.000283814,-1.031386928735539
-0.000283744,-1.024039417592225
-0.000283674,-1.024039417592222
-0.000283604,-1.024039417592219
-0.000283534,-1.016691906448904
-0.000283464,-1.020365662020561
-0.000283394,-1.016691906448906
-0.000283324,-1.027713173163877
-0.000283254,-1.024039417592222
-0.000283184,-1.02403941759222
-0.000283114,-1.020365662020563
-0.000283044,-1.020365662020561
-0.000282974,-1.016691906448904
-0.000282904,-1.024039417592219
-0.000282834,-1.024039417592222
-0.000282764,-1.020365662020563
-0.000282694,-1.02403941759222
-0.000282624,-1.024039417592222
-0.000282554,-1.024039417592222
-0.000282484,-1.020365662020563
-0.000282414,-1.024039417592222
-0.000282344,-1.020365662020561
-0.000282274,-1.027713173163879
-0.000282204,-1.031386928735543
-0.000282134,-1.027713173163882
-0.000282064,-1.027713173163882
-0.000281994,-1.024039417592222
-0.000281924,-1.027713173163882
-0.000281854,-1.027713173163882
-0.000281784,-1.035060684307203
-0.000281714,-1.031386928735543
-0.000281644,-1.031386928735543
-0.000281574,-1.031386928735543
-0.000281504,-1.027713173163882
-0.000281434,-1.031386928735541
-0.000281364,-1.031386928735543
-0.000281294,-1.031386928735543
-0.000281224,-1.035060684307201
-0.000281154,-1.031386928735543
-0.000281084,-1.031386928735543
-0.000281014,-1.024039417592225
-0.000280944,-1.027713173163882
-0.000280874,-1.027713173163882
-0.000280804,-1.027713173163882
-0.000280734,-1.031386928735543
-0.000280664,-1.031386928735543
-0.000280594,-1.027713173163884
-0.000280524,-1.027713173163882
-0.000280454,-1.027713173163882
-0.000280384,-1.031386928735541
-0.000280314,-1.027713173163882
-0.000280244,-1.024039417592222
-0.000280174,-1.02771317316388
-0.000280104,-1.027713173163882
-0.000280034,-1.027713173163882
-0.000279964,-1.027713173163882
-0.000279894,-1.024039417592222
-0.000279824,-1.024039417592222
-0.000279754,-1.020365662020563
-0.000279684,-1.027713173163882
-0.000279614,-1.024039417592222
-0.000279544,-1.031386928735539
-0.000279474,-1.027713173163882
-0.000279404,-1.027713173163882
-0.000279334,-1.020365662020565
-0.000279264,-1.027713173163882
-0.000279194,-1.027713173163882
-0.000279124,-1.024039417592224
-0.000279054,-1.031386928735543
-0.000278984,-1.027713173163882
-0.000278914,-1.027713173163882
-0.000278844,-1.035060684307203
-0.000278774,-1.027713173163882
-0.000278704,-1.024039417592224
-0.000278634,-1.020365662020561
-0.000278564,-1.024039417592222
-0.000278494,-1.024039417592222
-0.000278424,-1.027713173163882
-0.000278354,-1.020365662020561
-0.000278284,-1.027713173163879
-0.000278214,-1.027713173163882
-0.000278144,-1.024039417592222
-0.000278074,-1.027713173163882
-0.000278004,-1.027713173163882
-0.000277934,-1.027713173163882
-0.000277864,-1.031386928735541
-0.000277794,-1.027713173163882
-0.000277724,-1.035060684307203
-0.000277654,-1.031386928735543
-0.000277584,-1.031386928735543
-0.000277514,-1.031386928735543
-0.000277444,-1.031386928735539
-0.000277374,-1.024039417592222
-0.000277304,-1.031386928735543
-0.000277234,-1.027713173163884
-0.000277164,-1.031386928735543
-0.000277094,-1.027713173163882
-0.000277024,-1.02771317316388
-0.000276954,-1.024039417592222
-0.000276884,-1.027713173163882
-0.000276814,-1.0350606843072
-0.000276744,-1.027713173163882
-0.000276674,-1.035060684307203
-0.000276604,-1.031386928735541
-0.000276534,-1.027713173163882
-0.000276464,-1.031386928735543
-0.000276394,-1.035060684307203
-0.000276324,-1.035060684307203
-0.000276254,-1.031386928735543
-0.000276184,-1.027713173163884
-0.000276114,-1.031386928735543
-0.000276044,-1.031386928735543
-0.000275974,-1.031386928735543
-0.000275904,-1.031386928735543
-0.000275834,-1.035060684307203
-0.000275764,-1.031386928735539
-0.000275694,-1.024039417592222
-0.000275624,-1.024039417592222
-0.000275554,-1.027713173163886
-0.000275484,-1.035060684307203
-0.000275414,-1.024039417592222
-0.000275344,-1.031386928735543
-0.000275274,-1.031386928735543
-0.000275204,-1.027713173163882
-0.000275134,-1.031386928735544
-0.000275064,-1.035060684307203
-0.000274994,-1.031386928735543
-0.000274924,-1.031386928735541
-0.000274854,-1.027713173163882
-0.000274784,-1.027713173163882
-0.000274714,-1.02771317316388
-0.000274644,-1.024039417592222
-0.000274574,-1.024039417592222
-0.000274504,-1.035060684307201
-0.000274434,-1.031386928735543
-0.000274364,-1.031386928735543
-0.000274294,-1.031386928735543
-0.000274224,-1.031386928735543
-0.000274154,-1.031386928735543
-0.000274084,-1.031386928735541
-0.000274014,-1.027713173163882
-0.000273944,-1.031386928735543
-0.000273874,-1.035060684307203
-0.000273804,-1.035060684307203
-0.000273734,-1.024039417592222
-0.000273664,-1.027713173163882
-0.000273594,-1.027713173163882
-0.000273524,-1.027713173163882
-0.000273454,-1.031386928735546
-0.000273384,-1.03873443987886
-0.000273314,-1.035060684307203
-0.000273244,-1.02771317316388
-0.000273174,-1.024039417592224
-0.000273104,-1.035060684307203
-0.000273034,-1.027713173163884
-0.000272964,-1.031386928735541
-0.000272894,-1.031386928735543
-0.000272824,-1.03873443987886
-0.000272754,-1.031386928735546
-0.000272684,-1.031386928735543
-0.000272614,-1.027713173163882
-0.000272544,-1.027713173163882
-0.000272474,-1.031386928735543
-0.000272404,-1.027713173163882
-0.000272334,-1.027713173163882
-0.000272264,-1.035060684307203
-0.000272194,-1.035060684307201
-0.000272124,-1.031386928735544
-0.000272054,-1.031386928735543
-0.000271984,-1.035060684307203
-0.000271914,-1.035060684307203
-0.000271844,-1.031386928735543
-0.000271774,-1.031386928735543
-0.000271704,-1.031386928735543
-0.000271634,-1.027713173163882
-0.000271564,-1.027713173163884
-0.000271494,-1.031386928735541
-0.000271424,-1.031386928735543
-0.000271354,-1.031386928735541
-0.000271284,-1.027713173163884
-0.000271214,-1.027713173163882
-0.000271144,-1.031386928735541
-0.000271074,-1.027713173163884
-0.000271004,-1.027713173163882
-0.000270934,-1.024039417592224
-0.000270864,-1.02771317316388
-0.000270794,-1.024039417592222
-0.000270724,-1.020365662020561
-0.000270654,-1.027713173163879
-0.000270584,-1.031386928735543
-0.000270514,-1.024039417592222
-0.000270444,-1.024039417592222
-0.000270374,-1.027713173163882
-0.000270304,-1.027713173163882
-0.000270234,-1.027713173163882
-0.000270164,-1.024039417592222
-0.000270094,-1.031386928735543
-0.000270024,-1.027713173163884
-0.000269954,-1.024039417592222
-0.000269884,-1.024039417592222
-0.000269814,-1.02771317316388
-0.000269744,-1.035060684307203
-0.000269674,-1.024039417592222
-0.000269604,-1.031386928735539
-0.000269534,-1.027713173163882
-0.000269464,-1.031386928735543
-0.000269394,-1.024039417592225
-0.000269324,-1.027713173163882
-0.000269254,-1.027713173163882
-0.000269184,-1.024039417592224
-0.000269114,-1.020365662020561
-0.000269044,-1.031386928735543
-0.000268974,-1.027713173163884
-0.000268904,-1.031386928735543
-0.000268834,-1.027713173163882
-0.000268764,-1.024039417592224
-0.000268694,-1.020365662020561
-0.000268624,-1.027713173163882
-0.000268554,-1.027713173163882
-0.000268484,-1.027713173163882
-0.000268414,-1.024039417592222
-0.000268344,-1.031386928735539
-0.000268274,-1.024039417592222
-0.000268204,-1.031386928735543
-0.000268134,-1.027713173163884
-0.000268064,-1.031386928735543
-0.000267994,-1.027713173163882
-0.000267924,-1.031386928735541
-0.000267854,-1.031386928735543
-0.000267784,-1.031386928735543
-0.000267714,-1.027713173163884
-0.000267644,-1.016691906448901
-0.000267574,-1.024039417592222
-0.000267504,-1.024039417592222
-0.000267434,-1.016691906448901
-0.000267364,-1.027713173163882
-0.000267294,-1.031386928735541
-0.000267224,-1.027713173163882
-0.000267154,-1.027713173163882
-0.000267084,-1.024039417592224
-0.000267014,-1.031386928735543
-0.000266944,-1.020365662020561
-0.000266874,-1.02403941759222
-0.000266804,-1.027713173163882
-0.000266734,-1.031386928735543
-0.000266664,-1.024039417592225
-0.000266594,-1.027713173163882
-0.000266524,-1.024039417592222
-0.000266454,-1.024039417592222
-0.000266384,-1.024039417592222
-0.000266314,-1.027713173163882
-0.000266244,-1.024039417592225
-0.000266174,-1.031386928735543
-0.000266104,-1.027713173163882
-0.000266034,-1.02771317316388
-0.000265964,-1.024039417592222
-0.000265894,-1.031386928735543
-0.000265824,-1.024039417592225
-0.000265754,-1.031386928735543
-0.000265684,-1.031386928735543
-0.000265614,-1.024039417592225
-0.000265544,-1.031386928735543
-0.000265474,-1.031386928735543
-0.000265404,-1.024039417592225
-0.000265334,-1.031386928735543
-0.000265264,-1.031386928735543
-0.000265194,-1.0350606843072
-0.000265124,-1.027713173163882
-0.000265054,-1.035060684307203
-0.000264984,-1.031386928735541
-0.000264914,-1.027713173163882
-0.000264844,-1.027713173163882
-0.000264774,-1.02771317316388
-0.000264704,-1.024039417592222
-0.000264634,-1.027713173163882
-0.000264564,-1.020365662020563
-0.000264494,-1.024039417592222
-0.000264424,-1.027713173163882
-0.000264354,-1.027713173163882
-0.000264284,-1.027713173163882
-0.000264214,-1.024039417592222
-0.000264144,-1.031386928735541
-0.000264074,-1.027713173163882
-0.000264004,-1.035060684307203
-0.000263934,-1.020365662020565
-0.000263864,-1.027713173163882
-0.000263794,-1.035060684307203
-0.000263724,-1.027713173163882
-0.000263654,-1.027713173163882
-0.000263584,-1.024039417592222
-0.000263514,-1.027713173163879
-0.000263444,-1.020365662020561
-0.000263374,-1.027713173163882
-0.000263304,-1.031386928735539
-0.000263234,-1.024039417592222
-0.000263164,-1.027713173163882
-0.000263094,-1.024039417592224
-0.000263024,-1.027713173163882
-0.000262954,-1.027713173163882
-0.000262884,-1.027713173163884
-0.000262814,-1.031386928735543
-0.000262744,-1.035060684307203
-0.000262674,-1.027713173163884
-0.000262604,-1.031386928735543
-0.000262534,-1.031386928735543
-0.000262464,-1.031386928735541
-0.000262394,-1.027713173163882
-0.000262324,-1.027713173163882
-0.000262254,-1.027713173163884
-0.000262184,-1.031386928735543
-0.000262114,-1.027713173163882
-0.000262044,-1.024039417592222
-0.000261974,-1.024039417592222
-0.000261904,-1.027713173163882
-0.000261834,-1.027713173163882
-0.000261764,-1.027713173163882
-0.000261694,-1.027713173163882
-0.000261624,-1.024039417592224
-0.000261554,-1.02771317316388
-0.000261484,-1.024039417592222
-0.000261414,-1.027713173163884
-0.000261344,-1.031386928735541
-0.000261274,-1.024039417592222
-0.000261204,-1.035060684307198
-0.000261134,-1.024039417592227
-0.000261064,-1.031386928735543
-0.000260994,-1.031386928735543
-0.000260924,-1.031386928735543
-0.000260854,-1.031386928735543
-0.000260784,-1.02771317316388
-0.000260714,-1.024039417592224
-0.000260644,-1.020365662020561
-0.000260574,-1.02771317316388
-0.000260504,-1.024039417592224
-0.000260434,-1.013018150877241
-0.000260364,-1.02403941759222
-0.000260294,-1.020365662020563
-0.000260224,-1.024039417592222
-0.000260154,-1.020365662020563
-0.000260084,-1.02403941759222
-0.000260014,-1.024039417592222
-0.000259944,-1.027713173163879
-0.000259874,-1.020365662020565
-0.000259804,-1.027713173163882
-0.000259734,-1.024039417592224
-0.000259664,-1.02771317316388
-0.000259594,-1.024039417592222
-0.000259524,-1.02403941759222
-0.000259454,-1.020365662020563
-0.000259384,-1.027713173163882
-0.000259314,-1.027713173163879
-0.000259244,-1.020365662020565
-0.000259174,-1.031386928735543
-0.000259104,-1.024039417592224
-0.000259034,-1.02771317316388
-0.000258964,-1.024039417592222
-0.000258894,-1.027713173163882
-0.000258824,-1.024039417592224
-0.000258754,-1.024039417592222
-0.000258684,-1.027713173163882
-0.000258614,-1.024039417592224
-0.000258544,-1.020365662020561
-0.000258474,-1.027713173163882
-0.000258404,-1.016691906448906
-0.000258334,-1.016691906448901
-0.000258264,-1.020365662020561
-0.000258194,-1.031386928735538
-0.000258124,-1.020365662020561
-0.000258054,-1.020365662020561
-0.000257984,-1.02403941759222
-0.000257914,-1.020365662020561
-0.000257844,-1.031386928735543
-0.000257774,-1.020365662020567
-0.000257704,-1.024039417592222
-0.000257634,-1.027713173163882
-0.000257564,-1.024039417592224
-0.000257494,-1.027713173163882
-0.000257424,-1.020365662020561
-0.000257354,-1.02403941759222
-0.000257284,-1.027713173163882
-0.000257214,-1.031386928735543
-0.000257144,-1.027713173163884
-0.000257074,-1.024039417592222
-0.000257004,-1.027713173163882
-0.000256934,-1.031386928735541
-0.000256864,-1.031386928735543
-0.000256794,-1.031386928735543
-0.000256724,-1.027713173163884
-0.000256654,-1.031386928735543
-0.000256584,-1.027713173163882
-0.000256514,-1.0350606843072
-0.000256444,-1.027713173163882
-0.000256374,-1.031386928735543
-0.000256304,-1.027713173163884
-0.000256234,-1.020365662020561
-0.000256164,-1.027713173163882
-0.000256094,-1.020365662020565
-0.000256024,-1.024039417592222
-0.000255954,-1.020365662020561
-0.000255884,-1.02403941759222
-0.000255814,-1.027713173163882
-0.000255744,-1.027713173163882
-0.000255674,-1.020365662020565
-0.000255604,-1.024039417592222
-0.000255534,-1.020365662020561
-0.000255464,-1.02403941759222
-0.000255394,-1.020365662020561
-0.000255324,-1.020365662020561
-0.000255254,-1.020365662020561
-0.000255184,-1.020365662020561
-0.000255114,-1.027713173163882
-0.000255044,-1.024039417592224
-0.000254974,-1.020365662020561
-0.000254904,-1.027713173163882
-0.000254834,-1.024039417592224
-0.000254764,-1.020365662020561
-0.000254694,-1.031386928735543
-0.000254624,-1.027713173163884
-0.000254554,-1.027713173163882
-0.000254484,-1.027713173163882
-0.000254414,-1.031386928735541
-0.000254344,-1.027713173163882
-0.000254274,-1.024039417592222
-0.000254204,-1.027713173163884
-0.000254134,-1.031386928735543
-0.000254064,-1.027713173163882
-0.000253994,-1.031386928735541
-0.000253924,-1.027713173163882
-0.000253854,-1.027713173163882
-0.000253784,-1.024039417592225
-0.000253714,-1.031386928735543
-0.000253644,-1.027713173163882
-0.000253574,-1.027713173163882
-0.000253504,-1.027713173163882
-0.000253434,-1.031386928735543
-0.000253364,-1.035060684307201
-0.000253294,-1.031386928735543
-0.000253224,-1.027713173163882
-0.000253154,-1.024039417592224
-0.000253084,-1.027713173163882
-0.000253014,-1.027713173163882
-0.000252944,-1.027713173163882
-0.000252874,-1.027713173163882
-0.000252804,-1.031386928735543
-0.000252734,-1.02771317316388
-0.000252664,-1.024039417592222
-0.000252594,-1.024039417592222
-0.000252524,-1.024039417592224
-0.000252454,-1.027713173163882
-0.000252384,-1.024039417592222
-0.000252314,-1.03873443987886
-0.000252244,-1.031386928735543
-0.000252174,-1.024039417592222
-0.000252104,-1.031386928735543
-0.000252034,-1.031386928735543
-0.000251964,-1.035060684307203
-0.000251894,-1.02771317316388
-0.000251824,-1.024039417592222
-0.000251754,-1.027713173163882
-0.000251684,-1.024039417592222
-0.000251614,-1.024039417592222
-0.000251544,-1.027713173163882
-0.000251474,-1.02403941759222
-0.000251404,-1.020365662020561
-0.000251334,-1.027713173163882
-0.000251264,-1.02771317316388
-0.000251194,-1.024039417592222
-0.000251124,-1.024039417592222
-0.000251054,-1.024039417592222
-0.000250984,-1.024039417592222
-0.000250914,-1.031386928735543
-0.000250844,-1.02771317316388
-0.000250774,-1.024039417592222
-0.000250704,-1.020365662020561
-0.000250634,-1.024039417592222
-0.000250564,-1.024039417592222
-0.000250494,-1.027713173163882
-0.000250424,-1.020365662020565
-0.000250354,-1.027713173163882
-0.000250284,-1.024039417592222
-0.000250214,-1.024039417592225
-0.000250144,-1.031386928735543
-0.000250074,-1.024039417592222
-0.000250004,-1.024039417592225
-0.000249934,-1.031386928735539
-0.000249864,-1.024039417592222
-0.000249794,-1.02771317316388
-0.000249724,-1.024039417592224
-0.000249654,-1.024039417592222
-0.000249584,-1.027713173163879
-0.000249514,-1.020365662020565
-0.000249444,-1.024039417592222
-0.000249374,-1.024039417592222
-0.000249304,-1.024039417592222
-0.000249234,-1.024039417592222
-0.000249164,-1.027713173163879
-0.000249094,-1.020365662020565
-0.000249024,-1.016691906448901
-0.000248954,-1.020365662020563
-0.000248884,-1.02403941759222
-0.000248814,-1.020365662020561
-0.000248744,-1.020365662020558
-0.000248674,-1.013018150877244
-0.000248604,-1.016691906448901
-0.000248534,-1.024039417592219
-0.000248464,-1.016691906448904
-0.000248394,-1.024039417592222
-0.000248324,-1.024039417592219
-0.000248254,-1.016691906448904
-0.000248184,-1.024039417592222
-0.000248114,-1.027713173163882
-0.000248044,-1.027713173163882
-0.000247974,-1.031386928735543
-0.000247904,-1.027713173163884
-0.000247834,-1.031386928735541
-0.000247764,-1.031386928735543
-0.000247694,-1.031386928735541
-0.000247624,-1.027713173163884
-0.000247554,-1.031386928735543
-0.000247484,-1.02403941759222
-0.000247414,-1.020365662020563
-0.000247344,-1.024039417592222
-0.000247274,-1.020365662020565
-0.000247204,-1.027713173163879
-0.000247134,-1.027713173163882
-0.000247064,-1.027713173163882
-0.000246994,-1.027713173163882
-0.000246924,-1.024039417592222
-0.000246854,-1.027713173163882
-0.000246784,-1.024039417592224
-0.000246714,-1.024039417592222
-0.000246644,-1.016691906448901
-0.000246574,-1.027713173163877
-0.000246504,-1.024039417592222
-0.000246434,-1.020365662020561
-0.000246364,-1.02403941759222
-0.000246294,-1.031386928735543
-0.000246224,-1.024039417592222
-0.000246154,-1.024039417592222
-0.000246084,-1.027713173163882
-0.000246014,-1.020365662020561
-0.000245944,-1.027713173163879
-0.000245874,-1.024039417592222
-0.000245804,-1.016691906448901
-0.000245734,-1.024039417592219
-0.000245664,-1.024039417592222
-0.000245594,-1.020365662020561
-0.000245524,-1.020365662020561
-0.000245454,-1.020365662020561
-0.000245384,-1.027713173163882
-0.000245314,-1.027713173163882
-0.000245244,-1.027713173163882
-0.000245174,-1.035060684307203
-0.000245104,-1.020365662020568
-0.000245034,-1.031386928735543
-0.000244964,-1.027713173163882
-0.000244894,-1.031386928735541
-0.000244824,-1.031386928735543
-0.000244754,-1.027713173163882
-0.000244684,-1.027713173163882
-0.000244614,-1.031386928735543
-0.000244544,-1.024039417592222
-0.000244474,-1.031386928735539
-0.000244404,-1.031386928735543
-0.000244334,-1.020365662020561
-0.000244264,-1.020365662020561
