intro2 (mosfets, converters, filters)/my lab results if you get really lost/lab6/lab06/lab 6 task 3.8.csv

#Digilent WaveForms Oscilloscope Acquisition
#Device Name: Discovery2
#Serial Number: SN:210321AA2E82
#Date Time: 2024-09-30 00:50:27.863
#Sample rate: 80000Hz
#Samples: 8192
#Trigger: Source: Channel 1 Type: Edge Condition: Rising Level: 0 V Hyst.: 750 mV HoldOff: 0 s
#Channel 1: Range: 2 V/div Offset: 0 V Sample Mode: Average
#Channel 2: Range: 2 V/div Offset: -3 V Sample Mode: Average
#Wavegen Channel 1: Running
#Mode: Simple
#Type: Sine
#Frequency: 100 Hz
#Period: 10 ms
#Amplitude: 2 V
#Offset: 0 V
#Symmetry: 50 %
#Phase: 0 °
#Power Supplies: ON
#Positive Supply: ON
#Voltage: 5 V
#Negative Supply: ON
#Voltage: -5 V

Time (s),Channel 1 (V),Channel 2 (V)
-0.04474687500000001,-1.053429462165505,-1.161650704481811
-0.044734375,-1.064450728880493,-1.161650704481811
-0.044721875,-1.079145751167128,-1.161650704481811
-0.044709375,-1.090167017882109,-1.165324832516617
-0.044696875,-1.104862040168751,-1.161650704481811
-0.04468437500000001,-1.115883306883732,-1.165324832516617
-0.044671875,-1.130578329170379,-1.165324832516617
-0.044659375,-1.141599595885355,-1.165324832516617
-0.044646875,-1.156294618171997,-1.168998960551423
-0.044634375,-1.170989640458639,-1.168998960551423
-0.04462187500000001,-1.18201090717362,-1.17267308858623
-0.044609375,-1.193032173888608,-1.17267308858623
-0.044596875,-1.207727196175243,-1.17267308858623
-0.044584375,-1.222422218461885,-1.17267308858623
-0.044571875,-1.233443485176866,-1.176347216621036
-0.04455937500000001,-1.244464751891847,-1.17267308858623
-0.044546875,-1.259159774178494,-1.172673088586232
-0.044534375,-1.27018104089347,-1.176347216621036
-0.044521875,-1.281202307608451,-1.176347216621036
-0.044509375,-1.295897329895093,-1.176347216621036
-0.04449687500000001,-1.310592352181735,-1.176347216621036
-0.044484375,-1.314266107753402,-1.180021344655843
-0.044471875,-1.328961130040037,-1.180021344655843
-0.044459375,-1.336308641183358,-1.180021344655843
-0.044446875,-1.351003663469999,-1.180021344655843
-0.04443437500000001,-1.362024930184981,-1.180021344655843
-0.044421875,-1.373046196899967,-1.180021344655843
-0.044409375,-1.384067463614943,-1.180021344655843
-0.044396875,-1.395088730329924,-1.183695472690649
-0.044384375,-1.406109997044906,-1.183695472690649
-0.04437187500000001,-1.420805019331547,-1.183695472690649
-0.044359375,-1.431826286046535,-1.187369600725456
-0.044346875,-1.44652130833317,-1.187369600725456
-0.044334375,-1.453868819476491,-1.187369600725456
-0.044321875,-1.464890086191472,-1.191043728760262
-0.04430937500000001,-1.475911352906454,-1.191043728760262
-0.04429687500000001,-1.48693261962143,-1.187369600725458
-0.044284375,-1.497953886336416,-1.187369600725456
-0.044271875,-1.508975153051398,-1.187369600725456
-0.044259375,-1.519996419766379,-1.191043728760262
-0.044246875,-1.5273439309097,-1.194717856795069
-0.04423437500000001,-1.538365197624676,-1.191043728760264
-0.044221875,-1.549386464339662,-1.194717856795069
-0.044209375,-1.556733975482983,-1.191043728760262
-0.044196875,-1.567755242197964,-1.191043728760262
-0.044184375,-1.578776508912946,-1.194717856795069
-0.04417187500000001,-1.586124020056263,-1.194717856795069
-0.044159375,-1.597145286771248,-1.194717856795069
-0.044146875,-1.608166553486229,-1.194717856795069
-0.044134375,-1.61918782020121,-1.198391984829875
-0.044121875,-1.626535331344531,-1.198391984829875
-0.04410937500000001,-1.637556598059507,-1.198391984829875
-0.044096875,-1.644904109202833,-1.198391984829875
-0.044084375,-1.652251620346154,-1.198391984829875
-0.044071875,-1.666946642632796,-1.202066112864682
-0.044059375,-1.674294153776116,-1.198391984829875
-0.04404687500000001,-1.681641664919434,-1.198391984829875
-0.044034375,-1.688989176062758,-1.202066112864682
-0.044021875,-1.700010442777739,-1.198391984829875
-0.044009375,-1.711031709492721,-1.202066112864682
-0.043996875,-1.714705465064381,-1.198391984829875
-0.04398437500000001,-1.725726731779357,-1.202066112864681
-0.043971875,-1.733074242922683,-1.198391984829875
-0.043959375,-1.740421754066004,-1.202066112864682
-0.043946875,-1.747769265209325,-1.202066112864682
-0.043934375,-1.758790531924306,-1.202066112864682
-0.04392187500000001,-1.762464287495965,-1.202066112864682
-0.043909375,-1.773485554210948,-1.205740240899488
-0.043896875,-1.777159309782608,-1.205740240899488
-0.043884375,-1.784506820925929,-1.205740240899488
-0.043871875,-1.79185433206925,-1.202066112864682
-0.04385937500000001,-1.799201843212567,-1.202066112864682
-0.043846875,-1.806549354355892,-1.205740240899488
-0.043834375,-1.813896865499212,-1.205740240899488
-0.043821875,-1.821244376642533,-1.205740240899488
-0.043809375,-1.824918132214194,-1.205740240899488
-0.04379687500000001,-1.832265643357511,-1.205740240899488
-0.043784375,-1.839613154500835,-1.209414368934294
-0.043771875,-1.846960665644156,-1.205740240899488
-0.043759375,-1.854308176787477,-1.205740240899488
-0.043746875,-1.861655687930798,-1.205740240899488
-0.04373437500000001,-1.865329443502457,-1.205740240899488
-0.043721875,-1.869003199074119,-1.209414368934294
-0.043709375,-1.87635071021744,-1.209414368934294
-0.043696875,-1.88369822136076,-1.209414368934294
-0.043684375,-1.891045732504081,-1.205740240899488
-0.04367187500000001,-1.89471948807574,-1.209414368934293
-0.043659375,-1.902066999219063,-1.209414368934294
-0.043646875,-1.902066999219063,-1.209414368934294
-0.043634375,-1.909414510362383,-1.209414368934294
-0.043621875,-1.913088265934044,-1.209414368934294
-0.04360937500000001,-1.916762021505704,-1.213088496969101
-0.043596875,-1.924109532649025,-1.209414368934294
-0.043584375,-1.927783288220686,-1.213088496969101
-0.043571875,-1.935130799364006,-1.213088496969101
-0.043559375,-1.935130799364006,-1.209414368934294
-0.04354687500000001,-1.942478310507327,-1.213088496969101
-0.043534375,-1.946152066078988,-1.213088496969101
-0.043521875,-1.949825821650648,-1.213088496969101
-0.043509375,-1.953499577222308,-1.213088496969101
-0.043496875,-1.957173332793969,-1.213088496969101
-0.04348437500000001,-1.960847088365629,-1.213088496969101
-0.043471875,-1.96452084393729,-1.209414368934294
-0.043459375,-1.96819459950895,-1.213088496969101
-0.043446875,-1.971868355080611,-1.213088496969101
-0.043434375,-1.975542110652271,-1.213088496969101
-0.04342187500000001,-1.979215866223931,-1.213088496969101
-0.043409375,-1.979215866223933,-1.213088496969101
-0.043396875,-1.982889621795592,-1.213088496969101
-0.043384375,-1.982889621795592,-1.213088496969101
-0.043371875,-1.990237132938913,-1.213088496969101
-0.04335937500000001,-1.990237132938913,-1.213088496969101
-0.043346875,-1.993910888510575,-1.213088496969101
-0.043334375,-1.997584644082234,-1.213088496969101
-0.043321875,-1.997584644082234,-1.213088496969101
-0.043309375,-2.001258399653894,-1.209414368934294
-0.04329687500000001,-2.001258399653894,-1.209414368934294
-0.043284375,-2.001258399653894,-1.213088496969101
-0.043271875,-2.001258399653894,-1.213088496969101
-0.043259375,-2.004932155225554,-1.213088496969101
-0.043246875,-2.008605910797215,-1.213088496969101
-0.04323437500000001,-2.008605910797215,-1.213088496969101
-0.043221875,-2.008605910797217,-1.213088496969101
-0.043209375,-2.012279666368875,-1.213088496969101
-0.043196875,-2.008605910797215,-1.213088496969101
-0.043184375,-2.008605910797215,-1.209414368934294
-0.04317187500000001,-2.012279666368875,-1.209414368934294
-0.043159375,-2.008605910797217,-1.213088496969101
-0.043146875,-2.012279666368875,-1.213088496969101
-0.043134375,-2.012279666368875,-1.213088496969101
-0.043121875,-2.012279666368875,-1.213088496969101
-0.04310937500000001,-2.012279666368875,-1.213088496969101
-0.043096875,-2.012279666368875,-1.2130884969691
-0.043084375,-2.012279666368875,-1.209414368934294
-0.043071875,-2.012279666368875,-1.213088496969101
-0.043059375,-2.008605910797215,-1.213088496969101
-0.04304687500000001,-2.008605910797215,-1.213088496969101
-0.043034375,-2.008605910797215,-1.213088496969101
-0.043021875,-2.008605910797215,-1.213088496969101
-0.043009375,-2.008605910797215,-1.213088496969101
-0.042996875,-2.004932155225554,-1.213088496969101
-0.04298437500000001,-2.008605910797215,-1.213088496969101
-0.042971875,-2.008605910797211,-1.2130884969691
-0.042959375,-2.001258399653894,-1.209414368934294
-0.042946875,-2.001258399653894,-1.213088496969101
-0.042934375,-2.001258399653894,-1.213088496969101
-0.04292187500000001,-1.997584644082234,-1.213088496969101
-0.042909375,-1.997584644082232,-1.213088496969103
-0.042896875,-1.993910888510573,-1.216762625003907
-0.042884375,-1.990237132938913,-1.213088496969101
-0.042871875,-1.990237132938913,-1.213088496969101
-0.04285937500000001,-1.986563377367252,-1.213088496969101
-0.042846875,-1.982889621795592,-1.2130884969691
-0.042834375,-1.982889621795592,-1.209414368934294
-0.042821875,-1.979215866223931,-1.213088496969101
-0.042809375,-1.979215866223931,-1.209414368934294
-0.04279687500000001,-1.971868355080611,-1.213088496969101
-0.042784375,-1.968194599508948,-1.209414368934294
-0.042771875,-1.96452084393729,-1.209414368934294
-0.042759375,-1.96452084393729,-1.209414368934294
-0.042746875,-1.957173332793969,-1.213088496969101
-0.042734375,-1.957173332793969,-1.213088496969101
-0.04272187500000001,-1.95349957722231,-1.209414368934296
-0.042709375,-1.946152066078988,-1.213088496969101
-0.042696875,-1.942478310507327,-1.209414368934294
-0.042684375,-1.938804554935667,-1.213088496969101
-0.042671875,-1.935130799364006,-1.213088496969101
-0.04265937500000001,-1.931457043792348,-1.209414368934296
-0.042646875,-1.924109532649025,-1.209414368934294
-0.042634375,-1.920435777077365,-1.209414368934294
-0.042621875,-1.916762021505704,-1.209414368934294
-0.042609375,-1.913088265934044,-1.209414368934294
-0.04259687500000001,-1.909414510362385,-1.209414368934294
-0.042584375,-1.902066999219063,-1.209414368934294
-0.042571875,-1.894719488075742,-1.209414368934294
-0.042559375,-1.891045732504081,-1.209414368934294
-0.042546875,-1.887371976932421,-1.209414368934294
-0.04253437500000001,-1.883698221360762,-1.209414368934294
-0.042521875,-1.87635071021744,-1.209414368934294
-0.042509375,-1.869003199074119,-1.209414368934294
-0.042496875,-1.861655687930798,-1.209414368934294
-0.042484375,-1.857981932359138,-1.209414368934294
-0.04247187500000001,-1.85063442121582,-1.209414368934294
-0.042459375,-1.846960665644156,-1.209414368934294
-0.042446875,-1.839613154500835,-1.205740240899488
-0.042434375,-1.828591887785854,-1.205740240899488
-0.042421875,-1.824918132214194,-1.205740240899488
-0.04240937500000001,-1.817570621070876,-1.205740240899488
-0.042396875,-1.810223109927552,-1.205740240899488
-0.042384375,-1.802875598784231,-1.205740240899488
-0.042371875,-1.799201843212571,-1.205740240899488
-0.042359375,-1.79185433206925,-1.205740240899488
-0.04234687500000001,-1.784506820925932,-1.205740240899488
-0.042334375,-1.777159309782608,-1.205740240899488
-0.042321875,-1.769811798639287,-1.205740240899488
-0.042309375,-1.762464287495967,-1.205740240899488
-0.042296875,-1.755116776352646,-1.202066112864682
-0.04228437500000001,-1.747769265209328,-1.202066112864682
-0.042271875,-1.736747998494344,-1.202066112864682
-0.042259375,-1.729400487351023,-1.202066112864682
-0.042246875,-1.722052976207702,-1.202066112864682
-0.042234375,-1.714705465064381,-1.202066112864682
-0.04222187500000001,-1.707357953921063,-1.198391984829877
-0.042209375,-1.696336687206079,-1.202066112864682
-0.042196875,-1.688989176062758,-1.202066112864682
-0.042184375,-1.677967909347777,-1.202066112864682
-0.042171875,-1.666946642632796,-1.198391984829875
-0.04215937500000001,-1.659599131489478,-1.202066112864681
-0.042146875,-1.652251620346154,-1.202066112864682
-0.042134375,-1.641230353631173,-1.198391984829875
-0.042121875,-1.633882842487852,-1.198391984829875
-0.042109375,-1.622861575772871,-1.198391984829875
-0.04209687500000001,-1.611840309057894,-1.198391984829875
-0.042084375,-1.600819042342908,-1.198391984829875
-0.042071875,-1.593471531199587,-1.198391984829875
-0.042059375,-1.586124020056266,-1.194717856795069
-0.042046875,-1.575102753341285,-1.194717856795069
-0.04203437500000001,-1.564081486626304,-1.194717856795069
-0.042021875,-1.556733975482983,-1.194717856795069
-0.042009375,-1.545712708768002,-1.191043728760262
-0.041996875,-1.53469144205302,-1.194717856795069
-0.041984375,-1.5273439309097,-1.194717856795069
-0.04197187500000001,-1.516322664194718,-1.194717856795069
-0.041959375,-1.508975153051398,-1.191043728760262
-0.041946875,-1.494280130764756,-1.191043728760262
-0.041934375,-1.486932619621435,-1.191043728760262
-0.041921875,-1.475911352906454,-1.191043728760262
-0.04190937500000001,-1.461216330619812,-1.187369600725456
-0.041896875,-1.450195063904827,-1.187369600725456
-0.041884375,-1.44284755276151,-1.187369600725456
-0.041871875,-1.428152530474868,-1.191043728760262
-0.041859375,-1.417131263759887,-1.187369600725456
-0.04184687500000001,-1.402436241473245,-1.183695472690649
-0.041834375,-1.395088730329919,-1.183695472690649
-0.041821875,-1.384067463614943,-1.183695472690649
-0.041809375,-1.369372441328301,-1.183695472690649
-0.041796875,-1.35835117461332,-1.180021344655843
-0.04178437500000001,-1.347329907898339,-1.180021344655843
-0.041771875,-1.336308641183352,-1.180021344655843
-0.041759375,-1.325287374468376,-1.180021344655843
-0.041746875,-1.314266107753395,-1.180021344655843
-0.041734375,-1.299571085466753,-1.183695472690649
-0.04172187500000001,-1.292223574323433,-1.176347216621036
-0.041709375,-1.277528552036786,-1.176347216621038
-0.041696875,-1.26650728532181,-1.180021344655843
-0.041684375,-1.251812263035168,-1.176347216621036
-0.041671875,-1.240790996320187,-1.176347216621036
-0.04165937500000001,-1.229769729605205,-1.176347216621036
-0.041646875,-1.215074707318559,-1.172673088586232
-0.041634375,-1.204053440603583,-1.176347216621036
-0.041621875,-1.189358418316941,-1.17267308858623
-0.041609375,-1.17833715160196,-1.17267308858623
-0.04159687500000001,-1.167315884886978,-1.168998960551423
-0.041584375,-1.15262086260033,-1.172673088586229
-0.041571875,-1.137925840313695,-1.168998960551423
-0.041559375,-1.126904573598714,-1.168998960551423
-0.041546875,-1.112209551312072,-1.165324832516617
-0.04153437500000001,-1.09751452902543,-1.165324832516617
-0.041521875,-1.086493262310444,-1.165324832516617
-0.041509375,-1.075471995595468,-1.165324832516617
-0.041496875,-1.060776973308826,-1.161650704481811
-0.041484375,-1.049755706593845,-1.161650704481811
-0.04147187500000001,-1.035060684307203,-1.157976576447004
-0.041459375,-1.020365662020555,-1.157976576447004
-0.041446875,-1.00567063973392,-1.157976576447004
-0.041434375,-0.9946493730189384,-1.157976576447004
-0.041421875,-0.9762805951606364,-1.154302448412198
-0.04140937500000001,-0.9652593284456551,-1.150628320377391
-0.041396875,-0.9505643061590084,-1.154302448412198
-0.041384375,-0.9395430394440322,-1.154302448412198
-0.041371875,-0.9248480171573904,-1.150628320377391
-0.041359375,-0.9101529948707487,-1.146954192342585
-0.04134687500000001,-0.8954579725841071,-1.146954192342585
-0.041334375,-0.8807629502974588,-1.143280064307779
-0.041321875,-0.8660679280108237,-1.143280064307779
-0.041309375,-0.851372905724182,-1.139605936272972
-0.041296875,-0.8403516390092007,-1.139605936272972
-0.04128437500000001,-0.8256566167225591,-1.135931808238166
-0.041271875,-0.8109615944359091,-1.135931808238164
-0.041259375,-0.7925928165776153,-1.132257680203359
-0.041246875,-0.781571549862634,-1.132257680203359
-0.041234375,-0.7632027720043318,-1.128583552168553
-0.04122187500000001,-0.7521815052893507,-1.124909424133746
-0.041209375,-0.7374864830027023,-1.124909424133746
-0.041196875,-0.7227914607160673,-1.124909424133746
-0.041184375,-0.7044226828577651,-1.12123529609894
-0.041171875,-0.6934014161427838,-1.117561168064134
-0.041159375,-0.6750326382844818,-1.117561168064134
-0.04114687500000001,-0.6640113715695055,-1.113887040029328
-0.041134375,-0.6456425937111984,-1.110212911994521
-0.041121875,-0.6309475714245567,-1.106538783959714
-0.041109375,-0.6199263047095754,-1.106538783959714
-0.041096875,-0.6015575268512734,-1.102864655924908
-0.04108437500000001,-0.5868625045646383,-1.099190527890102
-0.041071875,-0.5758412378496504,-1.095516399855295
-0.041059375,-0.5574724599913483,-1.095516399855295
-0.041046875,-0.5427774377047067,-1.088168143785682
-0.041034375,-0.5280824154180649,-1.088168143785682
-0.04102187500000001,-0.5133873931314299,-1.080819887716072
-0.041009375,-0.4986923708447815,-1.080819887716069
-0.040996875,-0.4839973485581399,-1.073471631646456
-0.040984375,-0.4693023262714981,-1.069797503611649
-0.040971875,-0.4509335484131961,-1.066123375576843
-0.04095937500000001,-0.4362385261265611,-1.062449247542038
-0.040946875,-0.4215435038399127,-1.05877511950723
-0.040934375,-0.406848481553271,-1.055100991472423
-0.040921875,-0.3884797036949689,-1.04775273540281
-0.040909375,-0.3774584369799877,-1.040404479333197
-0.04089687500000001,-0.3627634146933526,-1.033056223263587
-0.040884375,-0.3443946368350438,-1.029382095228778
-0.040871875,-0.3296996145484021,-1.022033839159165
-0.040859375,-0.3150045922617605,-1.018359711124359
-0.040846875,-0.3003095699751188,-1.003663198985133
-0.04083437500000001,-0.2782670365451663,-0.9963149429155227
-0.040821875,-0.2635720142585146,-0.9889666868459064
-0.040809375,-0.2525507475435333,-0.9779443027414874
-0.040796875,-0.2378557252568916,-0.9705960466718744
-0.040784375,-0.2194869473985895,-0.9558995345326484
-0.04077187500000001,-0.2047919251119545,-0.9412030223934291
-0.040759375,-0.1900969028253061,-0.9265065102541965
-0.040746875,-0.1754018805386644,-0.9118099981149705
-0.040734375,-0.1533593471087019,-0.889765229906132
-0.040721875,-0.1386643248220602,-0.8640463336624866
-0.04070937500000001,-0.127643058107084,-0.834653309384048
-0.040696875,-0.1092742802487768,-0.7979120290359702
-0.040684375,-0.09090550239047475,-0.7391259804790664
-0.040671875,-0.07988423567549348,-0.6509469076437111
-0.040659375,-0.06151545781719137,-0.5113300423210654
-0.04064687500000001,-0.04682043553055637,-0.3166012564764109
-0.040634375,-0.032125413243908,-0.06308642207467585
-0.040621875,-0.01743039095726631,0.2565627169534874
-0.040609375,0.0009383869010357944,0.6166272643645216
-0.040596875,0.01563340918767748,1.02445547622804
-0.04058437500000001,0.03032843147431249,1.469024968439421
-0.040571875,0.04502345376096085,1.950335740999271
-0.040559375,0.06339223161926297,2.442668897663338
-0.040546875,0.08176100947756507,2.927653798257792
-0.040534375,0.09645603176420675,3.331807882086504
-0.04052187500000001,0.1111510540508417,3.493469515617915
-0.040509375,0.1258460763374901,3.537559052035666
-0.040496875,0.1405410986241318,3.570626204348925
-0.040484375,0.1552361209107735,3.600019228627376
-0.040471875,0.1699311431974152,3.633086380940635
-0.04045937500000001,0.1882999210557173,3.662479405219086
-0.040446875,0.202994943342359,3.691872429497538
-0.040434375,0.2176899656290007,3.728613709845603
-0.040421875,0.2323849879156424,3.765354990193668
-0.040409375,0.247080010202284,3.989476800316862
-0.04039687500000001,0.2691225436322466,4.456091060737284
-0.040384375,0.2801438103472279,4.577337285885898
-0.040371875,0.2985125882055299,4.60673031016435
-0.040359375,0.3132076104921716,4.625100950338382
-0.040346875,0.3279026327788133,4.639797462477608
-0.04033437500000001,0.3462714106371154,4.654493974616834
-0.040321875,0.3609664329237621,4.665516358721261
-0.040309375,0.3719876996387384,4.683886998895286
-0.040296875,0.3866827219253801,4.694909382999705
-0.040284375,0.4050514997836822,4.709605895138931
-0.04027187500000001,0.4197465220703239,4.724302407278157
-0.040259375,0.4344415443569739,4.731650663347777
-0.040246875,0.4528103222152676,4.746347175486996
-0.040234375,0.4675053445019093,4.757369559591415
-0.040221875,0.482200366788551,4.772066071730641
-0.04020937500000001,0.5005691446468531,4.779414327800254
-0.040196875,0.5152641669335015,4.790436711904677
-0.040184375,0.5299591892201365,4.797784967974286
-0.040171875,0.5446542115067782,4.808807352078706
