intro2 (mosfets, converters, filters)/my lab results if you get really lost/lab9/task 2 csv/lab9task2-2.7kresistor.csv

#Digilent WaveForms Oscilloscope Acquisition
#Device Name: Discovery2
#Serial Number: SN:210321AA2E82
#Date Time: 2024-12-01 08:43:45.339
#Sample rate: 7.69231e+06Hz
#Samples: 8192
#Trigger: Source: Channel 1 Type: Edge Condition: Rising Level: 0 V Hyst.: Auto HoldOff: 0 s
#Channel 1: Range: 500 mV/div Offset: -850 mV Attenuation: 1 X Sample Mode: Average
#Wavegen Channel 1: Enabled
#Mode: Simple
#Type: Square
#Frequency: 1 kHz
#Period: 1 ms
#Amplitude: 1.5 V
#Offset: 1.5 V
#Symmetry: 50 %
#Phase: 0 °
#Power Supplies: OFF
#Positive Supply: Rdy
#Voltage: 5 V
#Negative Supply: OFF
#Voltage: -1 V

Time (s),Channel 1 (V)
-0.0006510418537008147,-0.001798392764094769
-0.0006509118537008147,-0.001798392764094769
-0.0006507818537008147,-0.001798392764094769
-0.0006506518537008147,-0.001798392764094769
-0.0006505218537008147,-0.001464006120157887
-0.0006503918537008147,-0.001464006120157735
-0.0006502618537008146,-0.001464006120157735
-0.0006501318537008147,-0.001464006120157735
-0.0006500018537008147,-0.001464006120157735
-0.0006498718537008147,-0.0007952328322836655
-0.0006497418537008147,-0.0011296194762207
-0.0006496118537008147,-0.0011296194762207
-0.0006494818537008147,-0.0011296194762207
-0.0006493518537008147,-0.0011296194762207
-0.0006492218537008147,-0.0011296194762207
-0.0006490918537008147,-0.0007952328322833614
-0.0006489618537008147,-0.0001264595444095962
-0.0006488318537008147,-0.0004608461883466308
-0.0006487018537008147,-0.0004608461883466308
-0.0006485718537008147,-0.0007952328322836655
-0.0006484418537008147,-0.0007952328322836655
-0.0006483118537008147,-0.0004608461883467829
-0.0006481818537008147,-0.0007952328322835135
-0.0006480518537008146,-0.0007952328322838176
-0.0006479218537008147,-0.001129619476220548
-0.0006477918537008147,-0.0007952328322836655
-0.0006476618537008147,-0.0011296194762207
-0.0006475318537008147,-0.0007952328322836655
-0.0006474018537008147,-0.0011296194762207
-0.0006472718537008147,-0.0004608461883469349
-0.0006471418537008147,-0.0007952328322835135
-0.0006470118537008146,-0.0007952328322836655
-0.0006468818537008147,-0.0007952328322835134
-0.0006467518537008147,-0.0004608461883466308
-0.0006466218537008147,-0.0007952328322836655
-0.0006464918537008147,-0.0011296194762207
-0.0006463618537008147,-0.0011296194762207
-0.0006462318537008147,-0.001464006120157735
-0.0006461018537008147,-0.001464006120157735
-0.0006459718537008146,-0.001464006120157583
-0.0006458418537008147,-0.0011296194762207
-0.0006457118537008147,-0.0011296194762207
-0.0006455818537008147,-0.001798392764094769
-0.0006454518537008147,-0.0011296194762207
-0.0006453218537008147,-0.001798392764094769
-0.0006451918537008147,-0.001798392764094769
-0.0006450618537008147,-0.002467166051968535
-0.0006449318537008147,-0.001464006120158191
-0.0006448018537008147,-0.002132779408031652
-0.0006446718537008147,-0.001798392764094921
-0.0006445418537008147,-0.002132779408031804
-0.0006444118537008147,-0.002132779408031804
-0.0006442818537008147,-0.001798392764094769
-0.0006441518537008147,-0.001798392764094769
-0.0006440218537008147,-0.002132779408031652
-0.0006438918537008147,-0.001464006120158039
-0.0006437618537008146,-0.0021327794080315
-0.0006436318537008147,-0.001464006120157735
-0.0006435018537008147,-0.001464006120157735
-0.0006433718537008147,-0.001798392764094769
-0.0006432418537008147,-0.001798392764094769
-0.0006431118537008147,-0.002132779408031804
-0.0006429818537008147,-0.001798392764094921
-0.0006428518537008147,-0.002467166051968535
-0.0006427218537008146,-0.001798392764094769
-0.0006425918537008147,-0.001798392764094769
-0.0006424618537008147,-0.001798392764094769
-0.0006423318537008147,-0.001464006120157735
-0.0006422018537008147,-0.001464006120157735
-0.0006420718537008147,-0.001798392764094769
-0.0006419418537008147,-0.0011296194762207
-0.0006418118537008147,-0.001464006120157583
-0.0006416818537008147,-0.001129619476220852
-0.0006415518537008147,-0.0021327794080315
-0.0006414218537008147,-0.001464006120157735
-0.0006412918537008147,-0.001464006120157735
-0.0006411618537008147,-0.0011296194762207
-0.0006410318537008147,-0.0011296194762207
-0.0006409018537008147,-0.001464006120157735
-0.0006407718537008147,-0.001464006120157735
-0.0006406418537008147,-0.001129619476220852
-0.0006405118537008147,-0.0011296194762207
-0.0006403818537008147,-0.001129619476220852
-0.0006402518537008147,-0.001464006120157735
-0.0006401218537008147,-0.0011296194762207
-0.0006399918537008147,-0.0011296194762207
-0.0006398618537008147,-0.0007952328322836655
-0.0006397318537008147,-0.001129619476220548
-0.0006396018537008147,-0.001464006120157583
-0.0006394718537008146,-0.001129619476220852
-0.0006393418537008147,-0.001464006120157735
-0.0006392118537008147,-0.001464006120157735
-0.0006390818537008147,-0.0011296194762207
-0.0006389518537008147,-0.0007952328322836655
-0.0006388218537008147,-0.0007952328322836655
-0.0006386918537008147,-0.001464006120157431
-0.0006385618537008147,-0.001129619476220852
-0.0006384318537008146,-0.0011296194762207
-0.0006383018537008147,-0.0011296194762207
-0.0006381718537008147,-0.0011296194762207
-0.0006380418537008147,-0.0011296194762207
-0.0006379118537008147,-0.0007952328322836655
-0.0006377818537008147,-0.001464006120157735
-0.0006376518537008147,-0.001464006120157735
-0.0006375218537008147,-0.001464006120157735
-0.0006373918537008147,-0.001129619476220852
-0.0006372618537008147,-0.0007952328322838176
-0.0006371318537008147,-0.0011296194762207
-0.0006370018537008147,-0.0011296194762207
-0.0006368718537008147,-0.001464006120157735
-0.0006367418537008147,-0.0011296194762207
-0.0006366118537008147,-0.0011296194762207
-0.0006364818537008147,-0.001464006120157583
-0.0006363518537008147,-0.0007952328322839696
-0.0006362218537008146,-0.0007952328322839696
-0.0006360918537008147,-0.001464006120157583
-0.0006359618537008147,-0.0011296194762207
-0.0006358318537008147,-0.0011296194762207
-0.0006357018537008147,-0.001464006120157735
-0.0006355718537008147,-0.002132779408031804
-0.0006354418537008147,-0.001129619476221156
-0.0006353118537008147,-0.001464006120157583
-0.0006351818537008146,-0.001464006120157735
-0.0006350518537008147,-0.001464006120157583
-0.0006349218537008147,-0.0011296194762207
-0.0006347918537008147,-0.001464006120157735
-0.0006346618537008147,-0.001798392764094769
-0.0006345318537008147,-0.001464006120157735
-0.0006344018537008147,-0.002132779408031804
-0.0006342718537008147,-0.001798392764094921
-0.0006341418537008146,-0.001798392764094769
-0.0006340118537008147,-0.001798392764094769
-0.0006338818537008147,-0.001798392764094769
-0.0006337518537008147,-0.001798392764094769
-0.0006336218537008147,-0.001798392764094769
-0.0006334918537008147,-0.002467166051968839
-0.0006333618537008147,-0.001798392764094769
-0.0006332318537008147,-0.002467166051968535
-0.0006331018537008147,-0.001464006120158191
-0.0006329718537008147,-0.0021327794080315
-0.0006328418537008147,-0.001464006120157887
-0.0006327118537008147,-0.001798392764094769
-0.0006325818537008147,-0.0011296194762207
-0.0006324518537008147,-0.001464006120157735
-0.0006323218537008147,-0.001464006120157735
-0.0006321918537008147,-0.001129619476220852
-0.0006320618537008147,-0.0007952328322838175
-0.0006319318537008146,-0.001464006120157431
-0.0006318018537008147,-0.0007952328322838176
-0.0006316718537008147,-0.0011296194762207
-0.0006315418537008147,-0.0007952328322836655
-0.0006314118537008147,-0.001464006120157735
-0.0006312818537008147,-0.0011296194762207
-0.0006311518537008147,-0.0007952328322838175
-0.0006310218537008147,-0.0007952328322836655
-0.0006308918537008146,-0.0007952328322835134
-0.0006307618537008147,-0.0004608461883467829
-0.0006306318537008147,-0.0007952328322836655
-0.0006305018537008147,-0.0007952328322836655
-0.0006303718537008147,-0.0007952328322836655
-0.0006302418537008147,-0.0001264595444095962
-0.0006301118537008147,-0.001798392764094769
-0.0006299818537008147,-0.001129619476221004
-0.0006298518537008146,-0.001129619476220852
-0.0006297218537008147,-0.001464006120157583
-0.0006295918537008147,-0.0011296194762207
-0.0006294618537008147,-0.002132779408031804
-0.0006293318537008147,-0.001798392764094769
-0.0006292018537008147,-0.001464006120157735
-0.0006290718537008147,-0.001798392764094769
-0.0006289418537008147,-0.001798392764094769
-0.0006288118537008147,-0.001798392764094769
-0.0006286818537008147,-0.001798392764094769
-0.0006285518537008147,-0.001798392764094617
-0.0006284218537008147,-0.001464006120157735
-0.0006282918537008147,-0.001798392764094769
-0.0006281618537008147,-0.001798392764094769
-0.0006280318537008147,-0.0011296194762207
-0.0006279018537008147,-0.001798392764094465
-0.0006277718537008147,-0.001464006120157887
-0.0006276418537008146,-0.001798392764094921
-0.0006275118537008147,-0.002132779408031652
-0.0006273818537008147,-0.001798392764094769
-0.0006272518537008147,-0.002467166051968839
-0.0006271218537008147,-0.001798392764094769
-0.0006269918537008147,-0.001798392764094769
-0.0006268618537008147,-0.001798392764094769
-0.0006267318537008147,-0.001798392764094769
-0.0006266018537008146,-0.001798392764094769
-0.0006264718537008147,-0.001798392764094921
-0.0006263418537008147,-0.002132779408031804
-0.0006262118537008147,-0.001798392764094769
-0.0006260818537008147,-0.002132779408031804
-0.0006259518537008147,-0.001798392764094769
-0.0006258218537008147,-0.001798392764094769
-0.0006256918537008147,-0.002132779408031652
-0.0006255618537008147,-0.001129619476221156
-0.0006254318537008147,-0.001798392764094617
-0.0006253018537008147,-0.001464006120157735
-0.0006251718537008147,-0.0011296194762207
-0.0006250418537008147,-0.001798392764094769
-0.0006249118537008147,-0.002132779408031804
-0.0006247818537008147,-0.001798392764094769
-0.0006246518537008147,-0.001464006120157887
-0.0006245218537008147,-0.001798392764094617
-0.0006243918537008146,-0.001464006120157735
-0.0006242618537008147,-0.001464006120157583
-0.0006241318537008147,-0.0011296194762207
-0.0006240018537008147,-0.0011296194762207
-0.0006238718537008147,-0.001464006120157735
-0.0006237418537008147,-0.001464006120157735
-0.0006236118537008147,-0.001464006120157735
-0.0006234818537008147,-0.001129619476220852
-0.0006233518537008146,-0.001464006120157583
-0.0006232218537008147,-0.0011296194762207
-0.0006230918537008147,-0.0011296194762207
-0.0006229618537008147,-0.001464006120157735
-0.0006228318537008147,-0.0011296194762207
-0.0006227018537008147,-0.0007952328322836655
-0.0006225718537008147,-0.0007952328322836655
-0.0006224418537008147,-0.001464006120157431
-0.0006223118537008146,-0.001464006120158039
-0.0006221818537008147,-0.002132779408031348
-0.0006220518537008147,-0.0011296194762207
-0.0006219218537008147,-0.001464006120157735
-0.0006217918537008147,-0.001464006120157735
-0.0006216618537008147,-0.001464006120157735
-0.0006215318537008147,-0.001798392764094769
-0.0006214018537008147,-0.001129619476221004
-0.0006212718537008147,-0.0011296194762207
-0.0006211418537008147,-0.001129619476220548
-0.0006210118537008147,-0.0007952328322838176
-0.0006208818537008147,-0.0011296194762207
-0.0006207518537008147,-0.0011296194762207
-0.0006206218537008147,-0.0004608461883466308
-0.0006204918537008147,-0.001464006120157735
-0.0006203618537008147,-0.0007952328322839696
-0.0006202318537008147,-0.001464006120157431
-0.0006201018537008146,-0.001129619476221004
-0.0006199718537008147,-0.001798392764094465
-0.0006198418537008147,-0.0011296194762207
-0.0006197118537008147,-0.001464006120157735
-0.0006195818537008147,-0.001464006120157735
-0.0006194518537008147,-0.001798392764094769
-0.0006193218537008147,-0.002132779408031652
-0.0006191918537008147,-0.001464006120158039
-0.0006190618537008146,-0.001798392764094921
-0.0006189318537008147,-0.002132779408031196
-0.0006188018537008147,-0.0007952328322836655
-0.0006186718537008147,-0.001464006120157735
-0.0006185418537008147,-0.001798392764094769
-0.0006184118537008147,-0.001464006120157735
-0.0006182818537008147,-0.002132779408031804
-0.0006181518537008147,-0.001798392764094921
-0.0006180218537008146,-0.001464006120157887
-0.0006178918537008147,-0.001798392764094769
-0.0006177618537008147,-0.001798392764094769
-0.0006176318537008147,-0.002132779408031804
-0.0006175018537008147,-0.001798392764094769
-0.0006173718537008147,-0.001798392764094769
-0.0006172418537008147,-0.001798392764094769
-0.0006171118537008147,-0.001798392764094769
-0.0006169818537008147,-0.001798392764094769
-0.0006168518537008147,-0.001464006120157583
-0.0006167218537008147,-0.001129619476220852
-0.0006165918537008147,-0.001464006120157735
-0.0006164618537008147,-0.001464006120157735
-0.0006163318537008147,-0.0011296194762207
-0.0006162018537008147,-0.0007952328322836655
-0.0006160718537008147,-0.001129619476220548
-0.0006159418537008147,-0.0004608461883469349
-0.0006158118537008146,-0.000460846188347087
-0.0006156818537008147,-0.001464006120157431
-0.0006155518537008147,-0.0007952328322836655
-0.0006154218537008147,-0.0004608461883466308
-0.0006152918537008147,-0.0007952328322836655
-0.0006151618537008147,-0.0007952328322836655
-0.0006150318537008147,-0.0001264595444099003
-0.0006149018537008147,-0.0004608461883464788
-0.0006147718537008146,-0.0007952328322836655
-0.0006146418537008147,-0.0007952328322836655
-0.0006145118537008147,-0.0007952328322836655
-0.0006143818537008147,-0.0001264595444095962
-0.0006142518537008147,-0.0004608461883466308
-0.0006141218537008147,-0.0004608461883466308
-0.0006139918537008147,-0.0004608461883466308
-0.0006138618537008147,-0.0004608461883466308
-0.0006137318537008147,-0.0004608461883466308
-0.0006136018537008147,-0.0004608461883466308
-0.0006134718537008147,-0.0004608461883466308
-0.0006133418537008147,-0.0001264595444095962
-0.0006132118537008147,-0.0011296194762207
-0.0006130818537008147,-0.0007952328322836655
-0.0006129518537008147,-0.0011296194762207
-0.0006128218537008147,-0.0011296194762207
-0.0006126918537008147,-0.0007952328322838175
-0.0006125618537008146,-0.0011296194762207
-0.0006124318537008147,-0.001129619476221004
-0.0006123018537008147,-0.001798392764094769
-0.0006121718537008147,-0.001464006120157735
-0.0006120418537008147,-0.001464006120157735
-0.0006119118537008147,-0.001464006120157735
-0.0006117818537008147,-0.001464006120157735
-0.0006116518537008147,-0.001798392764094617
-0.0006115218537008146,-0.001129619476220852
-0.0006113918537008147,-0.001464006120157887
-0.0006112618537008147,-0.001798392764094769
-0.0006111318537008147,-0.0011296194762207
-0.0006110018537008147,-0.002132779408031804
-0.0006108718537008147,-0.002132779408031804
-0.0006107418537008147,-0.002132779408031804
-0.0006106118537008147,-0.001798392764094921
-0.0006104818537008146,-0.002132779408031652
-0.0006103518537008147,-0.001798392764094921
-0.0006102218537008147,-0.002132779408031804
-0.0006100918537008147,-0.001798392764094769
-0.0006099618537008147,-0.001464006120157735
-0.0006098318537008147,-0.001464006120157735
-0.0006097018537008147,-0.002132779408031804
-0.0006095718537008147,-0.001129619476221156
-0.0006094418537008147,-0.001798392764094465
-0.0006093118537008147,-0.001129619476220852
-0.0006091818537008147,-0.001464006120157887
-0.0006090518537008147,-0.001798392764094769
-0.0006089218537008147,-0.001464006120157735
-0.0006087918537008147,-0.001464006120157735
-0.0006086618537008147,-0.0011296194762207
-0.0006085318537008147,-0.001464006120157583
-0.0006084018537008147,-0.0007952328322839696
-0.0006082718537008146,-0.0011296194762207
-0.0006081418537008147,-0.0011296194762207
-0.0006080118537008147,-0.0011296194762207
-0.0006078818537008147,-0.0011296194762207
-0.0006077518537008147,-0.0011296194762207
-0.0006076218537008147,-0.001464006120157735
-0.0006074918537008147,-0.001129619476220852
-0.0006073618537008147,-0.001464006120157583
-0.0006072318537008146,-0.0011296194762207
-0.0006071018537008147,-0.001129619476221004
-0.0006069718537008147,-0.001798392764094769
-0.0006068418537008147,-0.001464006120157735
-0.0006067118537008147,-0.0011296194762207
-0.0006065818537008147,-0.001798392764094769
-0.0006064518537008147,-0.001464006120157735
-0.0006063218537008147,-0.0021327794080315
-0.0006061918537008147,-0.001464006120158039
-0.0006060618537008148,-0.0021327794080315
-0.0006059318537008148,-0.001798392764094921
-0.0006058018537008147,-0.001798392764094769
-0.0006056718537008147,-0.0011296194762207
-0.0006055418537008147,-0.001798392764094769
-0.0006054118537008147,-0.001464006120157735
-0.0006052818537008147,-0.001129619476220852
-0.0006051518537008147,-0.001464006120157583
-0.0006050218537008148,-0.001464006120157735
-0.0006048918537008148,-0.001464006120157735
-0.0006047618537008147,-0.001464006120157735
-0.0006046318537008147,-0.001464006120157735
-0.0006045018537008147,-0.0011296194762207
-0.0006043718537008147,-0.001464006120157735
-0.0006042418537008147,-0.001129619476220852
-0.0006041118537008147,-0.001798392764094465
-0.0006039818537008148,-0.002132779408031652
-0.0006038518537008148,-0.001798392764094921
-0.0006037218537008147,-0.0011296194762207
-0.0006035918537008147,-0.002132779408031804
-0.0006034618537008147,-0.001798392764094769
-0.0006033318537008147,-0.002132779408031804
-0.0006032018537008147,-0.002132779408031804
-0.0006030718537008147,-0.001798392764094921
-0.0006029418537008148,-0.001129619476221004
-0.0006028118537008148,-0.001798392764094465
-0.0006026818537008147,-0.0011296194762207
-0.0006025518537008147,-0.0011296194762207
-0.0006024218537008147,-0.001798392764094769
-0.0006022918537008147,-0.0011296194762207
-0.0006021618537008147,-0.001464006120157735
-0.0006020318537008147,-0.001129619476220852
-0.0006019018537008147,-0.0011296194762207
-0.0006017718537008148,-0.002132779408031348
-0.0006016418537008148,-0.001464006120158039
-0.0006015118537008147,-0.002467166051968839
-0.0006013818537008147,-0.001798392764094769
-0.0006012518537008147,-0.001798392764094769
-0.0006011218537008147,-0.001798392764094769
-0.0006009918537008147,-0.001464006120157887
-0.0006008618537008147,-0.001798392764094617
-0.0006007318537008148,-0.001129619476221004
-0.0006006018537008148,-0.0011296194762207
-0.0006004718537008147,-0.001464006120157735
-0.0006003418537008147,-0.0011296194762207
-0.0006002118537008147,-0.0011296194762207
-0.0006000818537008147,-0.001798392764094769
-0.0005999518537008147,-0.001464006120157887
-0.0005998218537008147,-0.001464006120157735
-0.0005996918537008148,-0.001464006120157735
-0.0005995618537008148,-0.001464006120157735
-0.0005994318537008147,-0.001798392764094769
-0.0005993018537008147,-0.001798392764094769
-0.0005991718537008147,-0.001798392764094769
-0.0005990418537008147,-0.001798392764094769
-0.0005989118537008147,-0.001798392764094769
-0.0005987818537008147,-0.001464006120157887
-0.0005986518537008148,-0.001798392764094617
-0.0005985218537008148,-0.001129619476221004
-0.0005983918537008147,-0.002132779408031804
-0.0005982618537008147,-0.0011296194762207
-0.0005981318537008147,-0.0011296194762207
-0.0005980018537008147,-0.001798392764094769
-0.0005978718537008147,-0.0011296194762207
-0.0005977418537008147,-0.001464006120157583
-0.0005976118537008147,-0.001464006120157735
-0.0005974818537008148,-0.001129619476220852
-0.0005973518537008148,-0.001464006120157583
-0.0005972218537008147,-0.0011296194762207
-0.0005970918537008147,-0.0011296194762207
-0.0005969618537008147,-0.0007952328322836655
-0.0005968318537008147,-0.0007952328322836655
-0.0005967018537008147,-0.001129619476220548
-0.0005965718537008147,-0.001464006120157583
-0.0005964418537008148,-0.0007952328322839696
-0.0005963118537008148,-0.001129619476220548
-0.0005961818537008147,-0.0011296194762207
-0.0005960518537008147,-0.0011296194762207
-0.0005959218537008147,-0.0007952328322836655
-0.0005957918537008147,-0.0007952328322836655
-0.0005956618537008147,-0.0001264595444099003
-0.0005955318537008147,-0.0007952328322833614
-0.0005954018537008148,-0.0004608461883467829
-0.0005952718537008148,-0.001129619476220396
-0.0005951418537008147,-0.0011296194762207
-0.0005950118537008147,-0.0007952328322836655
