intro2 (mosfets, converters, filters)/my lab results if you get really lost/lab9/task 1 csv/bad data but were keeping it incase we need it/lab9task1-2.2kresistorfirst try.csv

#Digilent WaveForms Oscilloscope Acquisition
#Device Name: Discovery2
#Serial Number: SN:210321AA2E82
#Date Time: 2024-12-01 08:39:18.109
#Sample rate: 7.69231e+06Hz
#Samples: 8192
#Trigger: Source: Channel 1 Type: Edge Condition: Rising Level: 0 V Hyst.: Auto HoldOff: 0 s
#Channel 1: Range: 500 mV/div Offset: -850 mV Attenuation: 1 X Sample Mode: Average
#Wavegen Channel 1: Enabled
#Mode: Simple
#Type: Square
#Frequency: 1 kHz
#Period: 1 ms
#Amplitude: 1.5 V
#Offset: 1.5 V
#Symmetry: 50 %
#Phase: 0 °
#Power Supplies: OFF
#Positive Supply: Rdy
#Voltage: 5 V
#Negative Supply: OFF
#Voltage: -1 V

Time (s),Channel 1 (V)
-0.0006510447425897036,-0.01617701845338726
-0.0006509147425897036,-0.01584263180945022
-0.0006507847425897037,-0.01617701845338726
-0.0006506547425897037,-0.01584263180945022
-0.0006505247425897037,-0.01584263180945022
-0.0006503947425897037,-0.01584263180945022
-0.0006502647425897036,-0.01617701845338726
-0.0006501347425897036,-0.01617701845338711
-0.0006500047425897036,-0.01584263180945022
-0.0006498747425897036,-0.01584263180945022
-0.0006497447425897037,-0.01617701845338726
-0.0006496147425897037,-0.01584263180945022
-0.0006494847425897037,-0.01617701845338726
-0.0006493547425897037,-0.01584263180945038
-0.0006492247425897037,-0.01651140509732399
-0.0006490947425897036,-0.01617701845338726
-0.0006489647425897036,-0.01617701845338726
-0.0006488347425897036,-0.01584263180945022
-0.0006487047425897037,-0.01617701845338726
-0.0006485747425897037,-0.01651140509732429
-0.0006484447425897037,-0.01617701845338726
-0.0006483147425897037,-0.01550824516551349
-0.0006481847425897037,-0.01584263180945007
-0.0006480547425897036,-0.01617701845338695
-0.0006479247425897036,-0.01550824516551349
-0.0006477947425897036,-0.01617701845338726
-0.0006476647425897036,-0.01550824516551319
-0.0006475347425897037,-0.01550824516551319
-0.0006474047425897037,-0.01584263180945022
-0.0006472747425897037,-0.01550824516551334
-0.0006471447425897037,-0.01517385852157631
-0.0006470147425897036,-0.01584263180945038
-0.0006468847425897036,-0.01617701845338681
-0.0006467547425897036,-0.01517385852157616
-0.0006466247425897036,-0.01550824516551319
-0.0006464947425897037,-0.01550824516551319
-0.0006463647425897037,-0.01550824516551319
-0.0006462347425897037,-0.01550824516551319
-0.0006461047425897037,-0.01550824516551319
-0.0006459747425897036,-0.01584263180945007
-0.0006458447425897036,-0.01550824516551319
-0.0006457147425897036,-0.01550824516551319
-0.0006455847425897036,-0.01584263180945022
-0.0006454547425897037,-0.01584263180945022
-0.0006453247425897037,-0.01550824516551319
-0.0006451947425897037,-0.01584263180945022
-0.0006450647425897037,-0.01651140509732399
-0.0006449347425897037,-0.01584263180945053
-0.0006448047425897036,-0.01550824516551304
-0.0006446747425897036,-0.01517385852157646
-0.0006445447425897036,-0.01584263180945022
-0.0006444147425897037,-0.01617701845338726
-0.0006442847425897037,-0.01617701845338726
-0.0006441547425897037,-0.01584263180945022
-0.0006440247425897037,-0.01617701845338711
-0.0006438947425897037,-0.01550824516551349
-0.0006437647425897036,-0.01584263180945022
-0.0006436347425897036,-0.01584263180945053
-0.0006435047425897036,-0.01651140509732429
-0.0006433747425897036,-0.01584263180945022
-0.0006432447425897037,-0.01550824516551319
-0.0006431147425897037,-0.01584263180945022
-0.0006429847425897037,-0.01550824516551334
-0.0006428547425897037,-0.01550824516551319
-0.0006427247425897036,-0.01617701845338711
-0.0006425947425897036,-0.01584263180945007
-0.0006424647425897036,-0.01550824516551319
-0.0006423347425897036,-0.01617701845338726
-0.0006422047425897037,-0.01617701845338726
-0.0006420747425897037,-0.01584263180945022
-0.0006419447425897037,-0.01651140509732429
-0.0006418147425897037,-0.01550824516551365
-0.0006416847425897037,-0.01584263180945007
-0.0006415547425897036,-0.01584263180945007
-0.0006414247425897036,-0.01550824516551319
-0.0006412947425897036,-0.01617701845338726
-0.0006411647425897037,-0.01584263180945022
-0.0006410347425897037,-0.01550824516551319
-0.0006409047425897037,-0.01550824516551319
-0.0006407747425897037,-0.01584263180945007
-0.0006406447425897037,-0.01550824516551334
-0.0006405147425897036,-0.01517385852157616
-0.0006403847425897036,-0.01517385852157616
-0.0006402547425897036,-0.01517385852157616
-0.0006401247425897036,-0.01584263180945022
-0.0006399947425897037,-0.01550824516551319
-0.0006398647425897037,-0.01483947187763912
-0.0006397347425897037,-0.015173858521576
-0.0006396047425897037,-0.01483947187763927
-0.0006394747425897036,-0.01483947187763927
-0.0006393447425897036,-0.01517385852157616
-0.0006392147425897036,-0.01517385852157616
-0.0006390847425897036,-0.01550824516551319
-0.0006389547425897037,-0.01517385852157616
-0.0006388247425897037,-0.01483947187763912
-0.0006386947425897037,-0.01483947187763912
-0.0006385647425897037,-0.015173858521576
-0.0006384347425897036,-0.01517385852157585
-0.0006383047425897036,-0.01450508523370254
-0.0006381747425897036,-0.01550824516551319
-0.0006380447425897036,-0.01483947187763912
-0.0006379147425897037,-0.01517385852157616
-0.0006377847425897037,-0.01550824516551319
-0.0006376547425897037,-0.01483947187763912
-0.0006375247425897037,-0.015173858521576
-0.0006373947425897037,-0.01584263180944992
-0.0006372647425897036,-0.01483947187763942
-0.0006371347425897036,-0.01550824516551319
-0.0006370047425897036,-0.01517385852157616
-0.0006368747425897037,-0.01550824516551319
-0.0006367447425897037,-0.01550824516551319
-0.0006366147425897037,-0.01483947187763912
-0.0006364847425897037,-0.01550824516551289
-0.0006363547425897037,-0.01483947187763942
-0.0006362247425897036,-0.01517385852157616
-0.0006360947425897036,-0.015173858521576
-0.0006359647425897036,-0.01483947187763912
-0.0006358347425897036,-0.01550824516551319
-0.0006357047425897037,-0.01517385852157616
-0.0006355747425897037,-0.01517385852157616
-0.0006354447425897037,-0.01517385852157616
-0.0006353147425897037,-0.01517385852157616
-0.0006351847425897036,-0.01517385852157631
-0.0006350547425897036,-0.01550824516551334
-0.0006349247425897036,-0.01584263180945022
-0.0006347947425897036,-0.01550824516551319
-0.0006346647425897037,-0.01550824516551319
-0.0006345347425897037,-0.01584263180945022
-0.0006344047425897037,-0.01517385852157616
-0.0006342747425897037,-0.01584263180944992
-0.0006341447425897036,-0.01550824516551334
-0.0006340147425897036,-0.01584263180945053
-0.0006338847425897036,-0.01651140509732429
-0.0006337547425897036,-0.01617701845338726
-0.0006336247425897037,-0.01584263180945022
-0.0006334947425897037,-0.01617701845338726
-0.0006333647425897037,-0.01617701845338726
-0.0006332347425897037,-0.01584263180945038
-0.0006331047425897037,-0.01550824516551334
-0.0006329747425897036,-0.01617701845338695
-0.0006328447425897036,-0.01550824516551319
-0.0006327147425897036,-0.01550824516551319
-0.0006325847425897036,-0.01584263180945022
-0.0006324547425897037,-0.01584263180945022
-0.0006323247425897037,-0.01584263180945022
-0.0006321947425897037,-0.01550824516551334
-0.0006320647425897037,-0.01584263180945007
-0.0006319347425897036,-0.01517385852157646
-0.0006318047425897036,-0.01584263180945022
-0.0006316747425897036,-0.01584263180945022
-0.0006315447425897036,-0.01550824516551319
-0.0006314147425897037,-0.01550824516551319
-0.0006312847425897037,-0.01617701845338726
-0.0006311547425897037,-0.01584263180945038
-0.0006310247425897037,-0.01584263180945022
-0.0006308947425897036,-0.01584263180945007
-0.0006307647425897036,-0.01550824516551304
-0.0006306347425897036,-0.01517385852157616
-0.0006305047425897036,-0.01617701845338726
-0.0006303747425897037,-0.01584263180945022
-0.0006302447425897037,-0.01617701845338726
-0.0006301147425897037,-0.01617701845338726
-0.0006299847425897037,-0.01550824516551349
-0.0006298547425897036,-0.01550824516551334
-0.0006297247425897036,-0.01584263180945007
-0.0006295947425897036,-0.01550824516551319
-0.0006294647425897036,-0.01517385852157616
-0.0006293347425897037,-0.01517385852157616
-0.0006292047425897037,-0.01617701845338726
-0.0006290747425897037,-0.01617701845338726
-0.0006289447425897037,-0.01550824516551349
-0.0006288147425897037,-0.01584263180945007
-0.0006286847425897036,-0.01550824516551334
-0.0006285547425897036,-0.01584263180945022
-0.0006284247425897036,-0.01584263180945022
-0.0006282947425897036,-0.01483947187763912
-0.0006281647425897037,-0.01584263180945022
-0.0006280347425897037,-0.01517385852157616
-0.0006279047425897037,-0.01550824516551304
-0.0006277747425897037,-0.01550824516551319
-0.0006276447425897036,-0.01550824516551334
-0.0006275147425897036,-0.01584263180945022
-0.0006273847425897036,-0.01584263180945022
-0.0006272547425897036,-0.01550824516551319
-0.0006271247425897037,-0.01517385852157616
-0.0006269947425897037,-0.01550824516551319
-0.0006268647425897037,-0.01550824516551319
-0.0006267347425897037,-0.01517385852157631
-0.0006266047425897036,-0.01584263180944992
-0.0006264747425897036,-0.01517385852157631
-0.0006263447425897036,-0.01550824516551319
-0.0006262147425897036,-0.01517385852157616
-0.0006260847425897037,-0.01550824516551319
-0.0006259547425897037,-0.01550824516551319
-0.0006258247425897037,-0.01550824516551319
-0.0006256947425897037,-0.01517385852157631
-0.0006255647425897037,-0.01517385852157616
-0.0006254347425897036,-0.01517385852157631
-0.0006253047425897036,-0.01550824516551319
-0.0006251747425897036,-0.01517385852157616
-0.0006250447425897037,-0.01517385852157616
-0.0006249147425897037,-0.01517385852157616
-0.0006247847425897037,-0.01517385852157616
-0.0006246547425897037,-0.01584263180944992
-0.0006245247425897037,-0.01584263180945022
-0.0006243947425897036,-0.01584263180945022
-0.0006242647425897036,-0.01584263180945038
-0.0006241347425897036,-0.01617701845338726
-0.0006240047425897036,-0.01584263180945022
-0.0006238747425897037,-0.01550824516551319
-0.0006237447425897037,-0.01584263180945022
-0.0006236147425897037,-0.01550824516551334
-0.0006234847425897037,-0.01584263180945007
-0.0006233547425897036,-0.01651140509732414
-0.0006232247425897036,-0.01617701845338695
-0.0006230947425897036,-0.01550824516551319
-0.0006229647425897036,-0.01550824516551319
-0.0006228347425897037,-0.01584263180945022
-0.0006227047425897037,-0.01550824516551319
-0.0006225747425897037,-0.01584263180945022
-0.0006224447425897037,-0.01584263180945022
-0.0006223147425897036,-0.01517385852157616
-0.0006221847425897036,-0.01517385852157631
-0.0006220547425897036,-0.01550824516551319
-0.0006219247425897036,-0.01550824516551319
-0.0006217947425897037,-0.01584263180945022
-0.0006216647425897037,-0.01550824516551319
-0.0006215347425897037,-0.01617701845338726
-0.0006214047425897037,-0.01550824516551349
-0.0006212747425897037,-0.01550824516551319
-0.0006211447425897036,-0.01550824516551319
-0.0006210147425897036,-0.01550824516551319
-0.0006208847425897036,-0.01550824516551319
-0.0006207547425897036,-0.01550824516551319
-0.0006206247425897037,-0.01550824516551319
-0.0006204947425897037,-0.01584263180945022
-0.0006203647425897037,-0.01483947187763958
-0.0006202347425897037,-0.01483947187763912
-0.0006201047425897036,-0.01517385852157631
-0.0006199747425897036,-0.01550824516551273
-0.0006198447425897036,-0.01450508523370209
-0.0006197147425897036,-0.01450508523370209
-0.0006195847425897037,-0.01450508523370209
-0.0006194547425897037,-0.01483947187763912
-0.0006193247425897037,-0.01483947187763912
-0.0006191947425897037,-0.01483947187763912
-0.0006190647425897036,-0.01550824516551304
-0.0006189347425897036,-0.01517385852157616
-0.0006188047425897036,-0.01517385852157616
-0.0006186747425897036,-0.01550824516551319
-0.0006185447425897037,-0.01550824516551319
-0.0006184147425897037,-0.01550824516551319
-0.0006182847425897037,-0.01550824516551319
-0.0006181547425897037,-0.01550824516551319
-0.0006180247425897036,-0.01584263180945022
-0.0006178947425897036,-0.01584263180945007
-0.0006177647425897036,-0.01550824516551319
-0.0006176347425897036,-0.01550824516551319
-0.0006175047425897037,-0.01550824516551319
-0.0006173747425897037,-0.01651140509732429
-0.0006172447425897037,-0.01584263180945022
-0.0006171147425897037,-0.01550824516551334
-0.0006169847425897037,-0.01517385852157631
-0.0006168547425897036,-0.01483947187763927
-0.0006167247425897036,-0.01517385852157616
-0.0006165947425897036,-0.01517385852157616
-0.0006164647425897036,-0.01550824516551319
-0.0006163347425897037,-0.01517385852157616
-0.0006162047425897037,-0.01517385852157616
-0.0006160747425897037,-0.01483947187763927
-0.0006159447425897037,-0.01550824516551289
-0.0006158147425897036,-0.01550824516551319
-0.0006156847425897036,-0.01550824516551304
-0.0006155547425897036,-0.01517385852157616
-0.0006154247425897036,-0.01584263180945022
-0.0006152947425897037,-0.01584263180945022
-0.0006151647425897037,-0.01617701845338726
-0.0006150347425897037,-0.01584263180945038
-0.0006149047425897037,-0.01584263180945022
-0.0006147747425897036,-0.01584263180944992
-0.0006146447425897036,-0.015173858521576
-0.0006145147425897036,-0.01483947187763912
-0.0006143847425897036,-0.01517385852157616
-0.0006142547425897037,-0.01550824516551319
-0.0006141247425897037,-0.01517385852157616
-0.0006139947425897037,-0.01517385852157616
-0.0006138647425897037,-0.01517385852157616
-0.0006137347425897037,-0.01450508523370239
-0.0006136047425897036,-0.01517385852157616
-0.0006134747425897036,-0.01517385852157616
-0.0006133447425897036,-0.01550824516551319
-0.0006132147425897037,-0.01517385852157616
-0.0006130847425897037,-0.01517385852157616
-0.0006129547425897037,-0.01517385852157616
-0.0006128247425897037,-0.01450508523370239
-0.0006126947425897037,-0.01483947187763897
-0.0006125647425897036,-0.01517385852157616
-0.0006124347425897036,-0.01517385852157631
-0.0006123047425897036,-0.01550824516551319
-0.0006121747425897036,-0.01483947187763912
-0.0006120447425897037,-0.01483947187763912
-0.0006119147425897037,-0.01450508523370209
-0.0006117847425897037,-0.01517385852157585
-0.0006116547425897037,-0.01517385852157616
-0.0006115247425897036,-0.01550824516551319
-0.0006113947425897036,-0.01550824516551334
-0.0006112647425897036,-0.01584263180945022
-0.0006111347425897036,-0.01550824516551319
-0.0006110047425897037,-0.01617701845338726
-0.0006108747425897037,-0.01517385852157616
-0.0006107447425897037,-0.01550824516551304
-0.0006106147425897037,-0.01550824516551319
-0.0006104847425897036,-0.01550824516551319
-0.0006103547425897036,-0.01550824516551304
-0.0006102247425897036,-0.01517385852157616
-0.0006100947425897036,-0.01550824516551319
-0.0006099647425897037,-0.01483947187763912
-0.0006098347425897037,-0.01483947187763912
-0.0006097047425897037,-0.01550824516551319
-0.0006095747425897037,-0.01517385852157631
-0.0006094447425897037,-0.01550824516551304
-0.0006093147425897036,-0.01517385852157616
-0.0006091847425897036,-0.015173858521576
-0.0006090547425897036,-0.01483947187763912
-0.0006089247425897036,-0.01550824516551319
-0.0006087947425897037,-0.01550824516551319
-0.0006086647425897037,-0.01550824516551319
-0.0006085347425897037,-0.01517385852157631
-0.0006084047425897037,-0.01517385852157616
-0.0006082747425897036,-0.01550824516551319
-0.0006081447425897036,-0.01550824516551334
-0.0006080147425897036,-0.01584263180945022
-0.0006078847425897036,-0.01617701845338726
-0.0006077547425897037,-0.01550824516551319
-0.0006076247425897037,-0.01550824516551319
-0.0006074947425897037,-0.01550824516551319
-0.0006073647425897037,-0.01550824516551319
-0.0006072347425897036,-0.01550824516551304
-0.0006071047425897036,-0.01517385852157616
-0.0006069747425897036,-0.01517385852157616
-0.0006068447425897036,-0.01517385852157616
-0.0006067147425897037,-0.01483947187763927
-0.0006065847425897037,-0.015173858521576
-0.0006064547425897036,-0.01517385852157616
-0.0006063247425897036,-0.01517385852157616
-0.0006061947425897036,-0.01517385852157616
-0.0006060647425897036,-0.01517385852157616
-0.0006059347425897036,-0.01517385852157616
-0.0006058047425897036,-0.01483947187763927
-0.0006056747425897037,-0.01550824516551289
-0.0006055447425897037,-0.01584263180945007
-0.0006054147425897037,-0.01517385852157646
-0.0006052847425897036,-0.01517385852157616
-0.0006051547425897036,-0.01483947187763912
-0.0006050247425897036,-0.01550824516551319
-0.0006048947425897036,-0.01550824516551319
-0.0006047647425897036,-0.01517385852157631
-0.0006046347425897036,-0.01517385852157616
-0.0006045047425897037,-0.01550824516551304
-0.0006043747425897037,-0.01550824516551319
-0.0006042447425897036,-0.01483947187763912
-0.0006041147425897036,-0.01517385852157616
-0.0006039847425897036,-0.01483947187763912
-0.0006038547425897036,-0.01584263180945022
-0.0006037247425897036,-0.01550824516551334
-0.0006035947425897036,-0.01517385852157631
-0.0006034647425897037,-0.01517385852157616
-0.0006033347425897037,-0.01517385852157616
-0.0006032047425897036,-0.01517385852157616
-0.0006030747425897036,-0.01517385852157616
-0.0006029447425897036,-0.01517385852157616
-0.0006028147425897036,-0.01550824516551319
-0.0006026847425897036,-0.01517385852157616
-0.0006025547425897036,-0.01584263180944992
-0.0006024247425897037,-0.01584263180945022
-0.0006022947425897037,-0.01517385852157646
-0.0006021647425897036,-0.01584263180945022
-0.0006020347425897036,-0.01550824516551319
-0.0006019047425897036,-0.01550824516551319
-0.0006017747425897036,-0.01550824516551319
-0.0006016447425897036,-0.01483947187763912
-0.0006015147425897036,-0.01550824516551289
-0.0006013847425897037,-0.01483947187763942
-0.0006012547425897037,-0.01550824516551289
-0.0006011247425897037,-0.01483947187763942
-0.0006009947425897036,-0.01483947187763912
-0.0006008647425897036,-0.01517385852157616
-0.0006007347425897036,-0.01483947187763912
-0.0006006047425897036,-0.01517385852157616
-0.0006004747425897036,-0.01517385852157616
-0.0006003447425897036,-0.01450508523370239
-0.0006002147425897037,-0.01517385852157585
-0.0006000847425897037,-0.01517385852157616
-0.0005999547425897036,-0.01517385852157616
-0.0005998247425897036,-0.01517385852157616
-0.0005996947425897036,-0.01550824516551319
-0.0005995647425897036,-0.01517385852157616
-0.0005994347425897036,-0.01483947187763927
-0.0005993047425897036,-0.01584263180944977
-0.0005991747425897037,-0.01550824516551334
-0.0005990447425897037,-0.01517385852157631
-0.0005989147425897036,-0.01584263180945022
-0.0005987847425897036,-0.01483947187763912
-0.0005986547425897036,-0.01517385852157616
-0.0005985247425897036,-0.01517385852157616
-0.0005983947425897036,-0.01483947187763912
-0.0005982647425897036,-0.015173858521576
-0.0005981347425897037,-0.01550824516551304
-0.0005980047425897037,-0.01517385852157631
-0.0005978747425897037,-0.01550824516551304
-0.0005977447425897036,-0.01517385852157616
-0.0005976147425897036,-0.01517385852157616
-0.0005974847425897036,-0.01483947187763912
-0.0005973547425897036,-0.01550824516551319
-0.0005972247425897036,-0.01483947187763942
-0.0005970947425897036,-0.01550824516551289
-0.0005969647425897037,-0.01550824516551319
-0.0005968347425897037,-0.01584263180945007
-0.0005967047425897036,-0.01550824516551319
-0.0005965747425897036,-0.01550824516551319
-0.0005964447425897036,-0.01584263180945022
-0.0005963147425897036,-0.01550824516551319
-0.0005961847425897036,-0.01550824516551319
-0.0005960547425897036,-0.01517385852157631
-0.0005959247425897037,-0.01517385852157616
-0.0005957947425897037,-0.01550824516551304
-0.0005956647425897036,-0.01550824516551319
-0.0005955347425897036,-0.01584263180945022
-0.0005954047425897036,-0.01617701845338726
-0.0005952747425897036,-0.01550824516551319
-0.0005951447425897036,-0.01517385852157631
-0.0005950147425897036,-0.01483947187763927
-0.0005948847425897037,-0.01550824516551289
-0.0005947547425897037,-0.01550824516551319
-0.0005946247425897036,-0.01483947187763912
-0.0005944947425897036,-0.01517385852157616
-0.0005943647425897036,-0.01550824516551319
-0.0005942347425897036,-0.01617701845338726
-0.0005941047425897036,-0.01584263180945022
-0.0005939747425897036,-0.01617701845338711
