intro2 (mosfets, converters, filters)/my lab results if you get really lost/lab5/lab5/4_task2.6.csv

#Digilent WaveForms Oscilloscope Acquisition
#Device Name: Discovery2
#Serial Number: SN:210321AA2E82
#Date Time: 2024-09-19 10:57:12.715
#Sample rate: 800000Hz
#Samples: 8192
#Trigger: Source: Channel 1 Type: Edge Condition: Rising Level: 0 V Hyst.: Auto HoldOff: 0 s
#Channel 1: Range: 200 mV/div Offset: 0 V Attenuation: 1 X Sample Mode: Average
#Channel 2: Range: 1 V/div Offset: 0 V Attenuation: 1 X Sample Mode: Average
#Wavegen Channel 1: Running
#Mode: Simple
#Type: Sine
#Frequency: 1 kHz
#Period: 1 ms
#Amplitude: 250 mV
#Offset: 0 V
#Symmetry: 50 %
#Phase: 0 °
#Power Supplies: ON
#Positive Supply: ON
#Voltage: 4.99 V
#Negative Supply: ON
#Voltage: -5 V

Time (s),Channel 1 (V),Channel 2 (V)
-0.00512,-0.08727616599418352,2.36377483255248
-0.00511875,-0.08694177935024648,2.360100704517673
-0.0051175,-0.08727616599418306,2.367448960587288
-0.00511625,-0.08627300606237241,2.371123088622093
-0.005115,-0.08660739270630945,2.371123088622093
-0.00511375,-0.08727616599418352,2.374797216656899
-0.0051125,-0.08660739270630945,2.367448960587286
-0.00511125,-0.08660739270630945,2.367448960587286
-0.00511,-0.08694177935024648,2.374797216656899
-0.00510875,-0.08694177935024679,2.374797216656894
-0.0051075,-0.08761055263812054,2.36377483255248
-0.00510625,-0.08727616599418336,2.367448960587288
-0.005105,-0.08694177935024648,2.371123088622093
-0.00510375,-0.08694177935024648,2.367448960587286
-0.0051025,-0.08694177935024648,2.371123088622093
-0.00510125,-0.08727616599418352,2.374797216656899
-0.0051,-0.08727616599418352,2.36744896058729
-0.00509875,-0.08727616599418352,2.367448960587286
-0.0050975,-0.08761055263812054,2.367448960587286
-0.00509625,-0.08761055263812054,2.367448960587286
-0.005095,-0.08794493928205727,2.367448960587286
-0.00509375,-0.08727616599418352,2.367448960587286
-0.0050925,-0.08727616599418352,2.367448960587286
-0.00509125,-0.08727616599418352,2.371123088622091
-0.00509,-0.08727616599418352,2.36377483255248
-0.00508875,-0.08627300606237287,2.371123088622089
-0.0050875,-0.08627300606237241,2.374797216656899
-0.00508625,-0.08627300606237272,2.374797216656897
-0.005085,-0.08694177935024648,2.371123088622093
-0.00508375,-0.08761055263812054,2.374797216656899
-0.0050825,-0.08727616599418352,2.371123088622093
-0.00508125,-0.08761055263812054,2.367448960587286
-0.00508,-0.08727616599418367,2.374797216656896
-0.00507875,-0.08727616599418352,2.371123088622093
-0.0050775,-0.08694177935024663,2.367448960587288
-0.00507625,-0.08727616599418352,2.36377483255248
-0.005075,-0.08727616599418352,2.36377483255248
-0.00507375,-0.08727616599418352,2.36377483255248
-0.0050725,-0.08761055263812054,2.367448960587286
-0.00507125,-0.08694177935024648,2.36377483255248
-0.00507,-0.08727616599418352,2.371123088622093
-0.00506875,-0.08727616599418352,2.371123088622093
-0.0050675,-0.08727616599418352,2.374797216656899
-0.00506625,-0.08694177935024679,2.374797216656899
-0.005065,-0.08761055263812054,2.374797216656899
-0.00506375,-0.08694177935024633,2.371123088622093
-0.0050625,-0.08660739270630945,2.371123088622093
-0.00506125,-0.08727616599418352,2.371123088622093
-0.00506,-0.08727616599418352,2.371123088622093
-0.00505875,-0.08694177935024648,2.367448960587286
-0.0050575,-0.08694177935024648,2.367448960587286
-0.00505625,-0.08660739270630945,2.367448960587286
-0.005055,-0.08727616599418367,2.367448960587286
-0.00505375,-0.08761055263812054,2.367448960587286
-0.0050525,-0.08761055263812069,2.367448960587286
-0.00505125,-0.08794493928205757,2.367448960587286
-0.00505,-0.08727616599418352,2.367448960587286
-0.00504875,-0.08694177935024663,2.367448960587286
-0.0050475,-0.08694177935024648,2.367448960587286
-0.00504625,-0.08727616599418336,2.374797216656896
-0.005045,-0.08727616599418352,2.371123088622093
-0.00504375,-0.08694177935024648,2.367448960587288
-0.0050425,-0.08694177935024648,2.371123088622093
-0.00504125,-0.08694177935024648,2.36377483255248
-0.00504,-0.08694177935024648,2.367448960587286
-0.00503875,-0.08761055263812054,2.371123088622093
-0.0050375,-0.08727616599418367,2.371123088622093
-0.00503625,-0.08727616599418352,2.367448960587286
-0.005035,-0.08727616599418352,2.363774832552481
-0.00503375,-0.08761055263812054,2.371123088622093
-0.0050325,-0.08727616599418367,2.363774832552481
-0.00503125,-0.08761055263812054,2.367448960587286
-0.00503,-0.08761055263812054,2.371123088622093
-0.00502875,-0.08694177935024648,2.371123088622093
-0.0050275,-0.08694177935024648,2.367448960587286
-0.00502625,-0.08727616599418336,2.374797216656896
-0.005025,-0.08761055263812054,2.374797216656899
-0.00502375,-0.08761055263812069,2.371123088622089
-0.0050225,-0.08794493928205757,2.36377483255248
-0.00502125,-0.08761055263812023,2.360100704517675
-0.00502,-0.08694177935024648,2.36377483255248
-0.00501875,-0.08761055263812054,2.367448960587286
-0.0050175,-0.08727616599418352,2.371123088622093
-0.00501625,-0.08660739270630945,2.371123088622093
-0.005015,-0.08660739270630945,2.371123088622093
-0.00501375,-0.08694177935024648,2.371123088622093
-0.0050125,-0.08694177935024663,2.371123088622093
-0.00501125,-0.08727616599418352,2.371123088622093
-0.00501,-0.08794493928205742,2.374797216656897
-0.00500875,-0.08761055263812054,2.371123088622093
-0.0050075,-0.08694177935024648,2.371123088622093
-0.00500625,-0.08727616599418352,2.371123088622093
-0.005005,-0.08727616599418352,2.371123088622093
-0.00500375,-0.08660739270630975,2.367448960587288
-0.0050025,-0.08727616599418352,2.367448960587286
-0.00500125,-0.08727616599418336,2.371123088622093
-0.005,-0.08694177935024648,2.371123088622093
-0.00499875,-0.08727616599418352,2.371123088622093
-0.0049975,-0.08694177935024648,2.367448960587286
-0.00499625,-0.08694177935024648,2.371123088622093
-0.004995,-0.08761055263812023,2.371123088622093
-0.00499375,-0.08794493928205757,2.371123088622093
-0.0049925,-0.08727616599418382,2.371123088622093
-0.00499125,-0.08660739270630945,2.371123088622093
-0.00499,-0.0866073927063096,2.363774832552481
-0.00498875,-0.08694177935024648,2.367448960587286
-0.0049875,-0.08694177935024648,2.371123088622093
-0.00498625,-0.08761055263812054,2.367448960587286
-0.004985,-0.08660739270630945,2.371123088622093
-0.00498375,-0.08660739270630945,2.371123088622093
-0.0049825,-0.08761055263812054,2.367448960587286
-0.00498125,-0.08761055263812038,2.363774832552483
-0.00498,-0.08727616599418352,2.371123088622093
-0.00497875,-0.08794493928205727,2.374797216656899
-0.0049775,-0.08727616599418352,2.374797216656899
-0.00497625,-0.08694177935024648,2.378471344691705
-0.004975,-0.08727616599418352,2.371123088622093
-0.00497375,-0.08727616599418352,2.367448960587286
-0.0049725,-0.08727616599418352,2.371123088622091
-0.00497125,-0.08727616599418352,2.371123088622093
-0.00497,-0.08761055263812069,2.378471344691703
-0.00496875,-0.08794493928205757,2.374797216656899
-0.0049675,-0.08761055263812038,2.371123088622094
-0.00496625,-0.08727616599418352,2.374797216656899
-0.004965,-0.08727616599418352,2.378471344691705
-0.00496375,-0.08761055263812054,2.374797216656899
-0.0049625,-0.08761055263812054,2.371123088622093
-0.00496125,-0.08694177935024679,2.374797216656897
-0.00496,-0.08694177935024648,2.378471344691705
-0.00495875,-0.08727616599418367,2.378471344691703
-0.0049575,-0.08761055263812054,2.374797216656899
-0.00495625,-0.08727616599418352,2.374797216656899
-0.004955,-0.08694177935024648,2.378471344691705
-0.00495375,-0.08727616599418352,2.374797216656899
-0.0049525,-0.08727616599418352,2.371123088622094
-0.00495125,-0.08694177935024648,2.371123088622093
-0.00495,-0.08694177935024648,2.378471344691702
-0.00494875,-0.08761055263812054,2.371123088622093
-0.0049475,-0.08761055263812038,2.371123088622093
-0.00494625,-0.08727616599418352,2.371123088622093
-0.004945,-0.08761055263812054,2.378471344691705
-0.00494375,-0.08761055263812054,2.374797216656899
-0.0049425,-0.08694177935024648,2.374797216656899
-0.00494125,-0.08694177935024648,2.371123088622094
-0.00494,-0.08694177935024648,2.371123088622093
-0.00493875,-0.08694177935024648,2.371123088622093
-0.0049375,-0.08761055263812054,2.371123088622093
-0.00493625,-0.08794493928205757,2.371123088622093
-0.004935,-0.08794493928205757,2.371123088622093
-0.00493375,-0.08761055263812054,2.371123088622093
-0.0049325,-0.08761055263812054,2.367448960587286
-0.00493125,-0.08761055263812054,2.367448960587286
-0.00493,-0.08727616599418367,2.371123088622091
-0.00492875,-0.08761055263812054,2.371123088622093
-0.0049275,-0.08794493928205727,2.371123088622091
-0.00492625,-0.08727616599418352,2.367448960587286
-0.004925,-0.08727616599418367,2.363774832552483
-0.00492375,-0.08761055263812054,2.371123088622093
-0.0049225,-0.08727616599418352,2.371123088622093
-0.00492125,-0.08761055263812054,2.371123088622093
-0.00492,-0.08794493928205757,2.371123088622093
-0.00491875,-0.08727616599418382,2.371123088622093
-0.0049175,-0.08727616599418352,2.371123088622093
-0.00491625,-0.08727616599418367,2.378471344691702
-0.004915,-0.08761055263812054,2.371123088622093
-0.00491375,-0.08694177935024648,2.367448960587286
-0.0049125,-0.08694177935024648,2.367448960587286
-0.00491125,-0.08727616599418352,2.367448960587286
-0.00491,-0.08694177935024663,2.371123088622091
-0.00490875,-0.08694177935024648,2.367448960587286
-0.0049075,-0.08694177935024648,2.367448960587286
-0.00490625,-0.08727616599418352,2.367448960587286
-0.004905,-0.08727616599418336,2.371123088622093
-0.00490375,-0.08694177935024648,2.371123088622093
-0.0049025,-0.08694177935024648,2.367448960587286
-0.00490125,-0.08694177935024648,2.371123088622093
-0.0049,-0.08761055263812054,2.371123088622093
-0.00489875,-0.08761055263812054,2.367448960587288
-0.0048975,-0.08727616599418352,2.367448960587286
-0.00489625,-0.08761055263812038,2.367448960587286
-0.004895,-0.08727616599418352,2.36377483255248
-0.00489375,-0.08727616599418352,2.363774832552483
-0.0048925,-0.08727616599418352,2.371123088622093
-0.00489125,-0.08727616599418352,2.36377483255248
-0.00489,-0.08694177935024648,2.36377483255248
-0.00488875,-0.08694177935024648,2.36377483255248
-0.0048875,-0.08694177935024648,2.367448960587284
-0.00488625,-0.08694177935024648,2.367448960587286
-0.004885,-0.08761055263812023,2.367448960587286
-0.00488375,-0.08694177935024648,2.367448960587286
-0.0048825,-0.08660739270630975,2.371123088622091
-0.00488125,-0.08727616599418352,2.367448960587286
-0.00488,-0.08694177935024648,2.367448960587286
-0.00487875,-0.08660739270630945,2.36377483255248
-0.0048775,-0.08694177935024648,2.367448960587286
-0.00487625,-0.08727616599418336,2.367448960587286
-0.004875,-0.08694177935024648,2.371123088622093
-0.00487375,-0.08727616599418367,2.371123088622091
-0.0048725,-0.08761055263812054,2.367448960587286
-0.00487125,-0.08727616599418336,2.371123088622091
-0.00487,-0.08694177935024648,2.367448960587286
-0.00486875,-0.08694177935024648,2.36377483255248
-0.0048675,-0.08694177935024648,2.367448960587284
-0.00486625,-0.08694177935024648,2.367448960587286
-0.004865,-0.08694177935024648,2.371123088622091
-0.00486375,-0.08694177935024648,2.367448960587286
-0.0048625,-0.08694177935024679,2.367448960587284
-0.00486125,-0.08761055263812054,2.36377483255248
-0.00486,-0.08761055263812054,2.367448960587286
-0.00485875,-0.08727616599418352,2.36377483255248
-0.0048575,-0.08761055263812054,2.367448960587286
-0.00485625,-0.08727616599418367,2.363774832552481
-0.004855,-0.08727616599418352,2.36377483255248
-0.00485375,-0.08694177935024663,2.36377483255248
-0.0048525,-0.08694177935024648,2.367448960587286
-0.00485125,-0.08727616599418367,2.367448960587286
-0.00485,-0.08761055263812054,2.367448960587286
-0.00484875,-0.08761055263812054,2.367448960587286
-0.0048475,-0.08761055263812054,2.371123088622093
-0.00484625,-0.08761055263812054,2.371123088622093
-0.004845,-0.08761055263812054,2.363774832552483
-0.00484375,-0.08761055263812054,2.371123088622093
-0.0048425,-0.08694177935024679,2.367448960587284
-0.00484125,-0.08761055263812054,2.36377483255248
-0.00484,-0.08694177935024648,2.360100704517675
-0.00483875,-0.08694177935024648,2.36377483255248
-0.0048375,-0.08694177935024648,2.371123088622093
-0.00483625,-0.08727616599418352,2.36377483255248
-0.004835,-0.08694177935024648,2.36377483255248
-0.00483375,-0.08761055263812023,2.36377483255248
-0.0048325,-0.08727616599418352,2.371123088622093
-0.00483125,-0.08727616599418382,2.371123088622091
-0.00483,-0.08794493928205757,2.367448960587286
-0.00482875,-0.08761055263812038,2.367448960587284
-0.0048275,-0.08727616599418352,2.36377483255248
-0.00482625,-0.08727616599418352,2.36377483255248
-0.004825,-0.08761055263812038,2.36377483255248
-0.00482375,-0.08694177935024648,2.367448960587286
-0.0048225,-0.08727616599418336,2.363774832552481
-0.00482125,-0.08727616599418352,2.36377483255248
-0.00482,-0.08660739270630929,2.36377483255248
-0.00481875,-0.08627300606237241,2.36377483255248
-0.0048175,-0.08660739270630945,2.367448960587286
-0.00481625,-0.08727616599418352,2.36377483255248
-0.004815,-0.08761055263812054,2.367448960587286
-0.00481375,-0.08727616599418367,2.360100704517677
-0.0048125,-0.08660739270630945,2.371123088622093
-0.00481125,-0.08593861941843568,2.371123088622093
-0.00481,-0.08660739270630945,2.367448960587286
-0.00480875,-0.08694177935024648,2.36377483255248
-0.0048075,-0.08694177935024648,2.36377483255248
-0.00480625,-0.08727616599418352,2.36377483255248
-0.004805,-0.08627300606237241,2.367448960587286
-0.00480375,-0.08660739270630945,2.36377483255248
-0.0048025,-0.08727616599418321,2.371123088622089
-0.00480125,-0.08694177935024648,2.371123088622093
-0.0048,-0.08627300606237211,2.371123088622093
-0.00479875,-0.08560423277449834,2.371123088622093
-0.0047975,-0.08526984613056116,2.371123088622094
-0.00479625,-0.08493545948662427,2.374797216656899
-0.004795,-0.08493545948662427,2.374797216656899
-0.00479375,-0.08393229955481317,2.371123088622093
-0.0047925,-0.08292913962300208,2.378471344691705
-0.00479125,-0.0825947529790652,2.374797216656901
-0.00479,-0.08159159304725394,2.378471344691705
-0.00478875,-0.08092281975937926,2.378471344691709
-0.0047875,-0.07958527318363175,2.385819600761318
-0.00478625,-0.0782477266078833,2.382145472726513
-0.004785,-0.07757895332000954,2.385819600761318
-0.00478375,-0.07691018003213547,2.389493728796125
-0.0047825,-0.07557263345638796,2.389493728796125
-0.00478125,-0.07423508688063921,2.396841984865738
-0.00478,-0.07256315366095481,2.400516112900542
-0.00477875,-0.07122560708520591,2.404190240935351
-0.0047775,-0.06988806050945746,2.400516112900548
-0.00477625,-0.0692192872215837,2.407864368970157
-0.004775,-0.06888490057764667,2.411538497004964
-0.00477375,-0.06888490057764667,2.41521262503977
-0.0047725,-0.06855051393370964,2.41521262503977
-0.00477125,-0.06988806050945716,2.41521262503977
-0.00477,-0.0692192872215837,2.411538497004964
-0.00476875,-0.06955367386552058,2.415212625039768
-0.0047675,-0.06955367386552073,2.411538497004964
-0.00476625,-0.06955367386552089,2.411538497004962
-0.004765,-0.06988806050945777,2.407864368970157
-0.00476375,-0.06888490057764667,2.411538497004964
-0.0047625,-0.06955367386552073,2.411538497004964
-0.00476125,-0.06955367386552073,2.418886753074577
-0.00476,-0.06921928722158385,2.411538497004967
-0.00475875,-0.06888490057764667,2.411538497004964
-0.0047575,-0.0692192872215837,2.41521262503977
-0.00475625,-0.0692192872215837,2.41521262503977
-0.004755,-0.06955367386552058,2.415212625039772
-0.00475375,-0.0692192872215837,2.418886753074577
-0.0047525,-0.06988806050945777,2.422560881109383
-0.00475125,-0.06988806050945777,2.418886753074577
-0.00475,-0.06988806050945777,2.418886753074577
-0.00474875,-0.06955367386552089,2.418886753074577
-0.0047475,-0.06955367386552073,2.418886753074577
-0.00474625,-0.06988806050945762,2.415212625039772
-0.004745,-0.06955367386552073,2.418886753074577
-0.00474375,-0.06955367386552058,2.41521262503977
-0.0047425,-0.0692192872215837,2.41521262503977
-0.00474125,-0.06988806050945777,2.422560881109383
-0.00474,-0.07022244715339465,2.422560881109383
-0.00473875,-0.06988806050945777,2.41521262503977
-0.0047375,-0.07022244715339465,2.418886753074575
-0.00473625,-0.06988806050945777,2.41521262503977
-0.004735,-0.06988806050945762,2.418886753074577
-0.00473375,-0.06955367386552073,2.418886753074577
-0.0047325,-0.0692192872215837,2.41521262503977
-0.00473125,-0.06988806050945777,2.41521262503977
-0.00473,-0.06988806050945777,2.418886753074577
-0.00472875,-0.06988806050945777,2.415212625039772
-0.0047275,-0.06988806050945777,2.418886753074577
-0.00472625,-0.06988806050945777,2.418886753074577
-0.004725,-0.07055683379733184,2.418886753074577
-0.00472375,-0.07022244715339465,2.42256088110938
-0.0047225,-0.06988806050945777,2.41521262503977
-0.00472125,-0.06988806050945777,2.411538497004964
-0.00472,-0.0692192872215837,2.41521262503977
-0.00471875,-0.06955367386552073,2.411538497004964
-0.0047175,-0.06921928722158385,2.418886753074573
-0.00471625,-0.06988806050945777,2.422560881109383
-0.004715,-0.06955367386552058,2.418886753074575
-0.00471375,-0.0692192872215837,2.41521262503977
-0.0047125,-0.06955367386552073,2.418886753074573
-0.00471125,-0.06955367386552073,2.411538497004964
-0.00471,-0.0702224471533948,2.418886753074577
-0.00470875,-0.07055683379733184,2.418886753074577
-0.0047075,-0.07055683379733184,2.418886753074577
-0.00470625,-0.07022244715339496,2.418886753074577
-0.004705,-0.0692192872215837,2.41521262503977
-0.00470375,-0.06955367386552104,2.41521262503977
-0.0047025,-0.0702224471533948,2.41521262503977
-0.00470125,-0.06988806050945762,2.415212625039772
-0.0047,-0.06955367386552073,2.418886753074577
-0.00469875,-0.06988806050945777,2.422560881109383
-0.0046975,-0.06988806050945777,2.418886753074578
-0.00469625,-0.0702224471533948,2.41521262503977
-0.004695,-0.0702224471533948,2.41521262503977
-0.00469375,-0.06955367386552073,2.411538497004964
-0.0046925,-0.06988806050945777,2.415212625039768
-0.00469125,-0.06988806050945777,2.411538497004964
-0.00469,-0.06988806050945777,2.411538497004964
-0.00468875,-0.0702224471533948,2.418886753074577
-0.0046875,-0.06988806050945777,2.411538497004964
-0.00468625,-0.06988806050945777,2.415212625039768
-0.004685,-0.06988806050945777,2.418886753074577
-0.00468375,-0.07022244715339465,2.415212625039772
-0.0046825,-0.06955367386552073,2.41521262503977
-0.00468125,-0.07022244715339496,2.418886753074578
-0.00468,-0.07055683379733184,2.422560881109383
-0.00467875,-0.06988806050945777,2.418886753074577
-0.0046775,-0.06988806050945777,2.418886753074577
-0.00467625,-0.0702224471533948,2.418886753074577
-0.004675,-0.0702224471533948,2.415212625039772
-0.00467375,-0.0702224471533948,2.418886753074577
-0.0046725,-0.06988806050945762,2.418886753074573
-0.00467125,-0.06955367386552073,2.411538497004964
-0.00467,-0.06988806050945762,2.411538497004964
-0.00466875,-0.06955367386552073,2.411538497004964
-0.0046675,-0.06955367386552073,2.411538497004964
-0.00466625,-0.0702224471533948,2.41521262503977
-0.004665,-0.06955367386552073,2.418886753074577
-0.00466375,-0.06988806050945762,2.418886753074577
-0.0046625,-0.06988806050945777,2.418886753074577
-0.00466125,-0.06955367386552073,2.418886753074573
-0.00466,-0.06955367386552073,2.411538497004964
-0.00465875,-0.06921928722158385,2.411538497004962
-0.0046575,-0.06955367386552073,2.407864368970157
-0.00465625,-0.06955367386552073,2.411538497004964
-0.004655,-0.06955367386552073,2.411538497004964
-0.00465375,-0.06988806050945777,2.41521262503977
-0.0046525,-0.06921928722158401,2.41521262503977
-0.00465125,-0.0692192872215837,2.411538497004964
-0.00465,-0.07055683379733169,2.41521262503977
-0.00464875,-0.0702224471533948,2.41521262503977
-0.0046475,-0.06988806050945777,2.411538497004964
-0.00464625,-0.06955367386552073,2.411538497004964
-0.004645,-0.06955367386552073,2.411538497004964
-0.00464375,-0.06921928722158385,2.411538497004964
-0.0046425,-0.0692192872215837,2.41521262503977
-0.00464125,-0.06988806050945746,2.411538497004965
-0.00464,-0.06988806050945777,2.407864368970157
-0.00463875,-0.06955367386552073,2.411538497004964
