intro2 (mosfets, converters, filters)/my lab results if you get really lost/lab5/lab5/5_task3.csv

#Digilent WaveForms Oscilloscope Acquisition
#Device Name: Discovery2
#Serial Number: SN:210321AA2E82
#Date Time: 2024-09-19 11:12:53.072
#Sample rate: 800000Hz
#Samples: 8192
#Trigger: Source: Channel 1 Type: Edge Condition: Rising Level: 0 V Hyst.: Auto HoldOff: 0 s
#Channel 1: Range: 200 mV/div Offset: 0 V Attenuation: 1 X Sample Mode: Average
#Channel 2: Range: 1 V/div Offset: 0 V Attenuation: 1 X Sample Mode: Average
#Wavegen Channel 1: Running
#Mode: Simple
#Type: Sine
#Frequency: 1 kHz
#Period: 1 ms
#Amplitude: 10 mV
#Offset: 0 V
#Symmetry: 50 %
#Phase: 0 °
#Power Supplies: ON
#Positive Supply: ON
#Voltage: 4.99 V
#Negative Supply: ON
#Voltage: -5 V

Time (s),Channel 1 (V),Channel 2 (V)
-0.00512,0.004680161088500678,4.505791476844652
-0.00511875,0.003677001156689577,4.502117348809845
-0.0051175,0.003008227868815663,4.502117348809843
-0.00511625,0.003342614512752544,4.498443220775039
-0.005115,0.004011387800626611,4.502117348809845
-0.00511375,0.004345774444563644,4.505791476844652
-0.0051125,0.003677001156689577,4.498443220775039
-0.00511125,0.003677001156689577,4.502117348809843
-0.00511,0.003677001156689577,4.498443220775039
-0.00510875,0.003342614512752848,4.498443220775041
-0.0051075,0.004011387800626611,4.502117348809845
-0.00510625,0.003342614512752848,4.502117348809845
-0.005105,0.004011387800626611,4.502117348809845
-0.00510375,0.003677001156689577,4.494769092740232
-0.0051025,0.003677001156689577,4.498443220775039
-0.00510125,0.003677001156689577,4.494769092740232
-0.0051,0.002339454580942052,4.494769092740232
-0.00509875,0.002673841224878477,4.494769092740232
-0.0050975,0.002005067937004867,4.498443220775037
-0.00509625,0.00300822786881551,4.494769092740232
-0.005095,0.003008227868815358,4.498443220775039
-0.00509375,0.002673841224878477,4.498443220775039
-0.0050925,0.00200506793700441,4.494769092740232
-0.00509125,0.002339454580941292,4.494769092740232
-0.00509,0.003342614512752544,4.494769092740232
-0.00508875,0.003008227868815663,4.498443220775037
-0.0050875,0.002673841224878477,4.502117348809845
-0.00508625,0.002339454580941596,4.498443220775036
-0.005085,0.002673841224878477,4.491094964705426
-0.00508375,0.00200506793700441,4.498443220775039
-0.0050825,0.001670681293067377,4.505791476844652
-0.00508125,0.002339454580941444,4.498443220775039
-0.00508,0.002339454580941444,4.494769092740234
-0.00507875,0.002673841224878477,4.498443220775039
-0.0050775,0.002339454580941596,4.494769092740234
-0.00507625,0.00200506793700441,4.494769092740232
-0.005075,0.001670681293067529,4.494769092740232
-0.00507375,0.00200506793700441,4.494769092740232
-0.0050725,0.001670681293067377,4.491094964705426
-0.00507125,0.001670681293067377,4.487420836670619
-0.00507,0.00200506793700441,4.498443220775039
-0.00506875,0.0006675213612568848,4.494769092740234
-0.0050675,0.00100190800519331,4.494769092740232
-0.00506625,0.001670681293067681,4.494769092740232
-0.005065,0.002339454580941444,4.494769092740232
-0.00506375,0.001336294649130343,4.498443220775037
-0.0050625,0.001336294649130343,4.494769092740232
-0.00506125,0.00100190800519331,4.494769092740232
-0.00506,0.00100190800519331,4.494769092740232
-0.00505875,0.00100190800519331,4.491094964705426
-0.0050575,0.00100190800519331,4.491094964705426
-0.00505625,0.00100190800519331,4.494769092740232
-0.005055,0.0003331347173193953,4.49476909274023
-0.00505375,0.0006675213612562767,4.491094964705426
-0.0050525,0.0003331347173193953,4.491094964705426
-0.00505125,0.0006675213612562767,4.491094964705426
-0.00505,0.00100190800519331,4.491094964705426
-0.00504875,0.0003331347173195473,4.487420836670621
-0.0050475,-1.251926617790167e-06,4.491094964705426
-0.00504625,-1.251926617790167e-06,4.491094964705426
-0.005045,-0.0003356385705548236,4.491094964705426
-0.00504375,0.0003331347173192432,4.491094964705426
-0.0050425,0.0003331347173192432,4.491094964705426
-0.00504125,-1.251926617790167e-06,4.491094964705426
-0.00504,-0.000670025214491857,4.491094964705426
-0.00503875,-1.251926617790167e-06,4.491094964705426
-0.0050375,-0.0003356385705546715,4.49476909274023
-0.00503625,-0.00100441185842889,4.494769092740232
-0.005035,-0.0003356385705551276,4.491094964705428
-0.00503375,-0.0003356385705548236,4.491094964705426
-0.0050325,-0.001338798502365772,4.491094964705426
-0.00503125,-0.00100441185842889,4.491094964705426
-0.00503,-0.0003356385705548236,4.491094964705426
-0.00502875,-0.000670025214491857,4.491094964705426
-0.0050275,-0.00100441185842889,4.487420836670619
-0.00502625,-0.00100441185842889,4.491094964705424
-0.005025,-0.000670025214491857,4.491094964705426
-0.00502375,-0.001673185146303109,4.487420836670619
-0.0050225,-0.002007571790239991,4.487420836670619
-0.00502125,-0.001673185146302805,4.491094964705424
-0.00502,-0.001338798502365924,4.487420836670619
-0.00501875,-0.001673185146302957,4.491094964705426
-0.0050175,-0.00100441185842889,4.487420836670619
-0.00501625,-0.002007571790239991,4.491094964705426
-0.005015,-0.001673185146303109,4.487420836670621
-0.00501375,-0.001673185146302957,4.487420836670619
-0.0050125,-0.001673185146302957,4.491094964705424
-0.00501125,-0.001673185146302957,4.487420836670619
-0.00501,-0.002341958434177024,4.483746708635813
-0.00500875,-0.002341958434177024,4.483746708635813
-0.0050075,-0.002341958434177024,4.483746708635813
-0.00500625,-0.002007571790239991,4.483746708635813
-0.005005,-0.002341958434177024,4.480072580601007
-0.00500375,-0.002676345078113905,4.480072580601007
-0.0050025,-0.002676345078114057,4.483746708635813
-0.00500125,-0.00267634507811421,4.483746708635811
-0.005,-0.003010731722051091,4.480072580601007
-0.00499875,-0.003010731722051091,4.480072580601007
-0.0049975,-0.003345118365988124,4.4763984525662
-0.00499625,-0.003345118365988124,4.480072580601007
-0.004995,-0.003010731722051243,4.476398452566202
-0.00499375,-0.003345118365988124,4.480072580601007
-0.0049925,-0.003679505009925005,4.480072580601007
-0.00499125,-0.004013891653862191,4.4763984525662
-0.00499,-0.003345118365987972,4.476398452566202
-0.00498875,-0.003010731722051091,4.480072580601007
-0.0049875,-0.003345118365988124,4.483746708635813
-0.00498625,-0.004013891653862191,4.483746708635813
-0.004985,-0.003345118365988124,4.480072580601007
-0.00498375,-0.003345118365988124,4.483746708635811
-0.0049825,-0.003010731722051091,4.483746708635813
-0.00498125,-0.003345118365988124,4.480072580601005
-0.00498,-0.003345118365988124,4.4763984525662
-0.00497875,-0.00367950500992531,4.480072580601007
-0.0049775,-0.004013891653862191,4.480072580601007
-0.00497625,-0.004682664941736258,4.483746708635813
-0.004975,-0.003345118365988124,4.480072580601007
-0.00497375,-0.003679505009925157,4.480072580601007
-0.0049725,-0.003679505009925157,4.483746708635811
-0.00497125,-0.004348278297799224,4.4763984525662
-0.00497,-0.004013891653862191,4.476398452566202
-0.00496875,-0.004013891653862191,4.480072580601007
-0.0049675,-0.004013891653862799,4.480072580601007
-0.00496625,-0.005351438229610325,4.480072580601007
-0.004965,-0.004682664941736258,4.4763984525662
-0.00496375,-0.005017051585673291,4.4763984525662
-0.0049625,-0.004682664941736258,4.4763984525662
-0.00496125,-0.005017051585673139,4.4763984525662
-0.00496,-0.005017051585673291,4.480072580601007
-0.00495875,-0.005017051585673139,4.480072580601007
-0.0049575,-0.004682664941736258,4.480072580601007
-0.00495625,-0.004682664941736258,4.480072580601007
-0.004955,-0.004682664941736258,4.480072580601007
-0.00495375,-0.005017051585673291,4.480072580601007
-0.0049525,-0.005685824873547054,4.480072580601007
-0.00495125,-0.006020211517484391,4.480072580601007
-0.00495,-0.006020211517484391,4.480072580601007
-0.00494875,-0.006020211517484391,4.480072580601007
-0.0049475,-0.00568582487354751,4.476398452566202
-0.00494625,-0.006020211517484391,4.480072580601007
-0.004945,-0.006020211517484391,4.4763984525662
-0.00494375,-0.005017051585673291,4.480072580601007
-0.0049425,-0.006020211517484391,4.472724324531394
-0.00494125,-0.006020211517484391,4.480072580601004
-0.00494,-0.006020211517484391,4.4763984525662
-0.00493875,-0.006354598161421273,4.4763984525662
-0.0049375,-0.005685824873547358,4.4763984525662
-0.00493625,-0.006688984805358306,4.4763984525662
-0.004935,-0.006354598161421425,4.4763984525662
-0.00493375,-0.006020211517484391,4.4763984525662
-0.0049325,-0.006020211517484391,4.480072580601007
-0.00493125,-0.006354598161421425,4.472724324531394
-0.00493,-0.006354598161421425,4.476398452566198
-0.00492875,-0.006354598161421425,4.480072580601007
-0.0049275,-0.00668898480535861,4.480072580601004
-0.00492625,-0.007023371449295492,4.472724324531394
-0.004925,-0.006688984805358306,4.480072580601005
-0.00492375,-0.006354598161421425,4.4763984525662
-0.0049225,-0.006688984805358458,4.4763984525662
-0.00492125,-0.007357758093232525,4.4763984525662
-0.00492,-0.007357758093232525,4.472724324531394
-0.00491875,-0.006688984805358763,4.472724324531394
-0.0049175,-0.007357758093232525,4.472724324531394
-0.00491625,-0.007692144737169407,4.476398452566198
-0.004915,-0.007357758093232525,4.472724324531394
-0.00491375,-0.008026531381106289,4.469050196496591
-0.0049125,-0.007357758093232525,4.4763984525662
-0.00491125,-0.007692144737169559,4.4763984525662
-0.00491,-0.007692144737169559,4.4763984525662
-0.00490875,-0.007692144737169559,4.4763984525662
-0.0049075,-0.007692144737169559,4.472724324531396
-0.00490625,-0.008026531381106592,4.472724324531394
-0.004905,-0.008026531381106592,4.472724324531396
-0.00490375,-0.008026531381106592,4.4763984525662
-0.0049025,-0.007692144737169559,4.4763984525662
-0.00490125,-0.008360918025043625,4.4763984525662
-0.0049,-0.007692144737169559,4.4763984525662
-0.00489875,-0.00802653138110644,4.4763984525662
-0.0048975,-0.008360918025043625,4.472724324531394
-0.00489625,-0.008695304668980506,4.476398452566198
-0.004895,-0.008026531381106592,4.4763984525662
-0.00489375,-0.008026531381106592,4.472724324531394
-0.0048925,-0.008026531381106592,4.472724324531394
-0.00489125,-0.008695304668980658,4.469050196496587
-0.00489,-0.008695304668980658,4.4763984525662
-0.00488875,-0.009029691312917693,4.4763984525662
-0.0048875,-0.008360918025043929,4.472724324531396
-0.00488625,-0.008695304668980658,4.472724324531394
-0.004885,-0.009029691312917693,4.469050196496587
-0.00488375,-0.009029691312917693,4.469050196496587
-0.0048825,-0.009364077956854117,4.469050196496589
-0.00488125,-0.008026531381106592,4.472724324531394
-0.00488,-0.009364077956854726,4.4763984525662
-0.00487875,-0.009029691312917693,4.472724324531394
-0.0048775,-0.009029691312917693,4.469050196496587
-0.00487625,-0.009029691312917693,4.472724324531392
-0.004875,-0.009029691312917693,4.469050196496587
-0.00487375,-0.009364077956854878,4.472724324531392
-0.0048725,-0.009698464600791759,4.469050196496587
-0.00487125,-0.009029691312917693,4.469050196496591
-0.00487,-0.009029691312917693,4.4763984525662
-0.00486875,-0.009364077956854726,4.472724324531394
-0.0048675,-0.009698464600791606,4.469050196496589
-0.00486625,-0.009698464600791759,4.472724324531394
-0.004865,-0.009698464600791759,4.472724324531394
-0.00486375,-0.01003285124472879,4.472724324531394
-0.0048625,-0.009029691312918149,4.472724324531396
-0.00486125,-0.01003285124472879,4.4763984525662
-0.00486,-0.01003285124472879,4.472724324531394
-0.00485875,-0.01036723788866583,4.469050196496587
-0.0048575,-0.01036723788866583,4.469050196496587
-0.00485625,-0.01036723788866583,4.469050196496587
-0.004855,-0.009364077956854726,4.4763984525662
-0.00485375,-0.01036723788866537,4.480072580601005
-0.0048525,-0.01036723788866583,4.4763984525662
-0.00485125,-0.01070162453260225,4.472724324531394
-0.00485,-0.009364077956854726,4.472724324531394
-0.00484875,-0.01036723788866583,4.472724324531394
-0.0048475,-0.01003285124472879,4.469050196496587
-0.00484625,-0.009698464600791759,4.472724324531394
-0.004845,-0.0107016245326024,4.469050196496589
-0.00484375,-0.01103601117653989,4.472724324531394
-0.0048425,-0.01036723788866598,4.476398452566198
-0.00484125,-0.01070162453260286,4.472724324531394
-0.00484,-0.01036723788866598,4.472724324531392
-0.00483875,-0.01070162453260286,4.469050196496587
-0.0048375,-0.01070162453260286,4.4763984525662
-0.00483625,-0.01036723788866583,4.472724324531394
-0.004835,-0.01137039782047693,4.472724324531394
-0.00483375,-0.01170478446441381,4.469050196496589
-0.0048325,-0.01070162453260286,4.472724324531394
-0.00483125,-0.01137039782047677,4.476398452566198
-0.00483,-0.01103601117653989,4.472724324531394
-0.00482875,-0.01103601117653989,4.469050196496589
-0.0048275,-0.01103601117653989,4.472724324531394
-0.00482625,-0.01137039782047693,4.465376068461781
-0.004825,-0.01070162453260316,4.472724324531391
-0.00482375,-0.01070162453260286,4.472724324531394
-0.0048225,-0.01137039782047662,4.469050196496589
-0.00482125,-0.01137039782047693,4.472724324531394
-0.00482,-0.01203917110835084,4.472724324531394
-0.00481875,-0.01170478446441396,4.472724324531394
-0.0048175,-0.01103601117653989,4.472724324531394
-0.00481625,-0.01203917110835099,4.472724324531394
-0.004815,-0.01137039782047693,4.469050196496587
-0.00481375,-0.01137039782047693,4.472724324531392
-0.0048125,-0.01203917110835099,4.4763984525662
-0.00481125,-0.01170478446441411,4.4763984525662
-0.00481,-0.01170478446441396,4.469050196496587
-0.00480875,-0.01170478446441442,4.469050196496585
-0.0048075,-0.01270794439622506,4.465376068461781
-0.00480625,-0.01203917110835099,4.469050196496587
-0.004805,-0.01103601117653989,4.465376068461781
-0.00480375,-0.01203917110835099,4.469050196496587
-0.0048025,-0.01170478446441411,4.480072580601002
-0.00480125,-0.01137039782047693,4.4763984525662
-0.0048,-0.01137039782047693,4.472724324531392
-0.00479875,-0.01137039782047693,4.469050196496587
-0.0047975,-0.01170478446441411,4.472724324531394
-0.00479625,-0.01203917110835099,4.472724324531394
-0.004795,-0.01203917110835099,4.472724324531394
-0.00479375,-0.01203917110835099,4.469050196496587
-0.0047925,-0.01137039782047693,4.4763984525662
-0.00479125,-0.01170478446441381,4.4763984525662
-0.00479,-0.01237355775228803,4.472724324531394
-0.00478875,-0.01237355775228772,4.472724324531394
-0.0047875,-0.01170478446441396,4.472724324531394
-0.00478625,-0.01170478446441426,4.472724324531392
-0.004785,-0.01237355775228803,4.469050196496587
-0.00478375,-0.01170478446441396,4.472724324531394
-0.0047825,-0.01203917110835084,4.469050196496589
-0.00478125,-0.01203917110835099,4.465376068461781
-0.00478,-0.01203917110835099,4.472724324531391
-0.00477875,-0.01203917110835099,4.472724324531394
-0.0047775,-0.01170478446441411,4.469050196496587
-0.00477625,-0.01203917110835099,4.469050196496587
-0.004775,-0.01137039782047693,4.472724324531394
-0.00477375,-0.01170478446441396,4.469050196496587
-0.0047725,-0.01237355775228803,4.469050196496587
-0.00477125,-0.01170478446441426,4.472724324531392
-0.00477,-0.01137039782047693,4.469050196496587
-0.00476875,-0.01137039782047693,4.469050196496587
-0.0047675,-0.01203917110835099,4.469050196496587
-0.00476625,-0.01203917110835115,4.472724324531392
-0.004765,-0.01237355775228803,4.469050196496587
-0.00476375,-0.01237355775228803,4.465376068461781
-0.0047625,-0.01237355775228803,4.469050196496587
-0.00476125,-0.01203917110835099,4.469050196496587
-0.00476,-0.01170478446441411,4.465376068461783
-0.00475875,-0.01203917110835099,4.465376068461781
-0.0047575,-0.01203917110835084,4.472724324531394
-0.00475625,-0.01170478446441396,4.472724324531394
-0.004755,-0.01137039782047693,4.465376068461781
-0.00475375,-0.01137039782047693,4.465376068461781
-0.0047525,-0.01103601117653989,4.469050196496587
-0.00475125,-0.01137039782047693,4.465376068461781
-0.00475,-0.01137039782047693,4.469050196496587
-0.00474875,-0.01137039782047693,4.476398452566197
-0.0047475,-0.01237355775228803,4.4763984525662
-0.00474625,-0.01170478446441396,4.469050196496591
-0.004745,-0.01170478446441396,4.4763984525662
-0.00474375,-0.01203917110835069,4.472724324531392
-0.0047425,-0.01137039782047693,4.469050196496587
-0.00474125,-0.01137039782047693,4.469050196496587
-0.00474,-0.01170478446441381,4.472724324531392
-0.00473875,-0.01203917110835099,4.469050196496587
-0.0047375,-0.01203917110835099,4.465376068461783
-0.00473625,-0.01203917110835099,4.469050196496587
-0.004735,-0.01170478446441396,4.472724324531392
-0.00473375,-0.01170478446441396,4.469050196496587
-0.0047325,-0.01137039782047693,4.465376068461781
-0.00473125,-0.01170478446441396,4.469050196496587
-0.00473,-0.01170478446441396,4.469050196496587
-0.00472875,-0.01170478446441396,4.469050196496587
-0.0047275,-0.01170478446441396,4.469050196496587
-0.00472625,-0.01137039782047708,4.469050196496587
-0.004725,-0.01170478446441396,4.469050196496587
-0.00472375,-0.01137039782047677,4.469050196496589
-0.0047225,-0.01103601117653989,4.472724324531394
-0.00472125,-0.01137039782047693,4.472724324531394
-0.00472,-0.01103601117653989,4.469050196496587
-0.00471875,-0.01137039782047693,4.472724324531394
-0.0047175,-0.01103601117654004,4.469050196496589
-0.00471625,-0.01137039782047693,4.469050196496587
-0.004715,-0.0117047844644135,4.465376068461781
-0.00471375,-0.01070162453260286,4.465376068461781
-0.0047125,-0.01103601117653974,4.469050196496587
-0.00471125,-0.01070162453260286,4.469050196496587
-0.00471,-0.01070162453260286,4.472724324531394
-0.00470875,-0.01036723788866583,4.4763984525662
-0.0047075,-0.01070162453260286,4.469050196496587
-0.00470625,-0.01137039782047662,4.469050196496587
-0.004705,-0.01103601117653989,4.465376068461781
-0.00470375,-0.01103601117653974,4.472724324531392
-0.0047025,-0.01070162453260286,4.469050196496587
-0.00470125,-0.01036723788866583,4.469050196496589
-0.0047,-0.01036723788866583,4.472724324531394
-0.00469875,-0.01036723788866583,4.472724324531394
-0.0046975,-0.01103601117653959,4.469050196496589
-0.00469625,-0.01103601117653989,4.469050196496587
-0.004695,-0.01036723788866613,4.472724324531392
-0.00469375,-0.01036723788866583,4.4763984525662
-0.0046925,-0.01103601117654004,4.472724324531394
-0.00469125,-0.01137039782047693,4.472724324531394
-0.00469,-0.01137039782047693,4.465376068461781
-0.00468875,-0.01103601117653989,4.469050196496587
-0.0046875,-0.01036723788866583,4.472724324531394
-0.00468625,-0.01070162453260271,4.472724324531394
-0.004685,-0.01003285124472879,4.469050196496587
-0.00468375,-0.01070162453260256,4.472724324531392
-0.0046825,-0.01070162453260286,4.472724324531394
-0.00468125,-0.01103601117653959,4.469050196496587
-0.00468,-0.01036723788866583,4.469050196496587
-0.00467875,-0.01070162453260286,4.472724324531394
-0.0046775,-0.01036723788866583,4.469050196496587
-0.00467625,-0.01003285124472879,4.469050196496587
-0.004675,-0.01003285124472879,4.472724324531392
-0.00467375,-0.01036723788866583,4.4763984525662
-0.0046725,-0.01036723788866598,4.472724324531392
-0.00467125,-0.01070162453260286,4.469050196496587
-0.00467,-0.01103601117653959,4.472724324531394
-0.00466875,-0.01036723788866583,4.472724324531394
-0.0046675,-0.009698464600791759,4.472724324531394
-0.00466625,-0.009364077956854726,4.4763984525662
-0.004665,-0.009364077956854726,4.472724324531394
-0.00466375,-0.009698464600791606,4.469050196496589
-0.0046625,-0.01003285124472879,4.469050196496587
-0.00466125,-0.01003285124472864,4.465376068461785
-0.00466,-0.009698464600791759,4.472724324531394
-0.00465875,-0.01003285124472894,4.472724324531391
-0.0046575,-0.01036723788866583,4.465376068461781
-0.00465625,-0.01003285124472879,4.469050196496587
-0.004655,-0.009364077956854726,4.472724324531394
-0.00465375,-0.01003285124472879,4.472724324531394
-0.0046525,-0.009698464600791911,4.472724324531394
-0.00465125,-0.009029691312917693,4.469050196496587
-0.00465,-0.009364077956854878,4.472724324531392
-0.00464875,-0.009698464600791759,4.469050196496587
-0.0046475,-0.009029691312917693,4.472724324531394
-0.00464625,-0.009364077956854726,4.4763984525662
-0.004645,-0.008695304668980658,4.469050196496587
-0.00464375,-0.00902969131291754,4.465376068461783
-0.0046425,-0.009364077956854726,4.469050196496587
